dump.vcd
$date
	2023-05-17 22:09
$end
$timescale 5000ps $end
$scope dumped_signals $end
$var wire 1 ! basesoc_ibus_stb $end
$var wire 1 " oe $end
$var wire 1 # lat $end
$var wire 1 $ sclk $end
$var wire 1 % r0 $end
$var wire 1 & r1 $end
$var wire 1 ' g0 $end
$var wire 1 ( g1 $end
$var wire 1 ) b0 $end
$var wire 1 * b1 $end
$var wire 1 + scope_clk $end
$var wire 1 , scope_trig $end
$unscope  $end
$enddefinitions  $end
$dumpvars
bx !
bx "
bx #
bx $
bx %
bx &
bx '
bx (
bx )
bx *
bx +
bx ,
$end
#0
b0 !
b1 "
b1 #
b0 $
b0 %
b1 &
b0 '
b1 (
b0 )
b0 *
b1 +
b0 ,
#1
b0 +
#2
b1 +
#3
b0 +
#4
b1 +
#5
b0 +
#6
b1 +
#7
b0 +
#8
b1 +
#9
b0 +
#10
b1 $
b0 (
b1 +
#11
b0 +
#12
b1 +
#13
b0 +
#14
b1 +
#15
b0 +
#16
b1 +
#17
b0 +
#18
b1 +
#19
b0 +
#20
b1 +
#21
b0 +
#22
b0 #
b0 $
b1 +
#23
b0 +
#24
b1 +
#25
b0 +
#26
b1 +
#27
b0 +
#28
b1 +
#29
b0 +
#30
b1 +
#31
b0 +
#32
b1 +
b1 ,
#33
b0 +
#34
b0 "
b1 +
#35
b0 +
#36
b1 +
#37
b0 +
#38
b1 +
#39
b0 +
#40
b1 +
#41
b0 +
#42
b1 +
#43
b0 +
#44
b1 +
#45
b0 +
#46
b1 $
b0 &
b1 +
#47
b0 +
#48
b1 +
#49
b0 +
#50
b1 +
#51
b0 +
#52
b1 +
#53
b0 +
#54
b1 +
#55
b0 +
#56
b1 +
#57
b0 +
#58
b1 "
b0 $
b1 +
#59
b0 +
#60
b1 !
b1 +
#61
b0 +
#62
b1 +
#63
b0 +
#64
b1 +
#65
b0 +
#66
b1 +
#67
b0 +
#68
b1 +
#69
b0 +
#70
b1 #
b1 $
b1 (
b1 +
#71
b0 +
#72
b1 +
#73
b0 +
#74
b1 +
#75
b0 +
#76
b1 +
#77
b0 +
#78
b1 +
#79
b0 +
#80
b1 +
#81
b0 +
#82
b0 $
b1 +
#83
b0 +
#84
b1 +
#85
b0 +
#86
b1 +
#87
b0 +
#88
b1 +
#89
b0 +
#90
b1 +
#91
b0 +
#92
b1 +
#93
b0 +
#94
b0 !
b0 #
b1 $
b0 (
b1 +
#95
b0 +
#96
b1 +
#97
b0 +
#98
b1 +
#99
b0 +
#100
b1 +
#101
b0 +
#102
b1 !
b1 +
#103
b0 +
#104
b1 +
#105
b0 +
#106
b0 "
b1 +
#107
b0 +
#108
b1 +
#109
b0 +
#110
b1 +
#111
b0 +
#112
b1 +
#113
b0 +
#114
b1 +
#115
b0 +
#116
b1 +
#117
b0 +
#118
b0 $
b1 +
#119
b0 +
#120
b1 +
#121
b0 +
#122
b1 +
#123
b0 +
#124
b1 +
#125
b0 +
#126
b1 +
#127
b0 +
#128
b1 +
#129
b0 +
#130
b1 "
b1 $
b1 &
b1 (
b1 +
#131
b0 +
#132
b1 +
#133
b0 +
#134
b1 +
#135
b0 +
#136
b1 +
#137
b0 +
#138
b1 +
#139
b0 +
#140
b1 +
#141
b0 +
#142
b1 #
b0 $
b1 +
#143
b0 +
#144
b1 +
#145
b0 +
#146
b1 +
#147
b0 +
#148
b1 +
#149
b0 +
#150
b1 +
#151
b0 +
#152
b1 +
#153
b0 +
#154
b1 $
b0 (
b1 +
#155
b0 +
#156
b1 +
#157
b0 +
#158
b1 +
#159
b0 +
#160
b1 +
#161
b0 +
#162
b1 +
#163
b0 +
#164
b1 +
#165
b0 +
#166
b0 #
b0 $
b1 +
#167
b0 +
#168
b1 +
#169
b0 +
#170
b1 +
#171
b0 +
#172
b1 +
#173
b0 +
#174
b1 +
#175
b0 +
#176
b1 +
#177
b0 +
#178
b0 "
b1 +
#179
b0 +
#180
b1 +
#181
b0 +
#182
b1 +
#183
b0 +
#184
b1 +
#185
b0 +
#186
b1 +
#187
b0 +
#188
b1 +
#189
b0 +
#190
b1 $
b0 &
b1 +
#191
b0 +
#192
b1 +
#193
b0 +
#194
b1 +
#195
b0 +
#196
b1 +
#197
b0 +
#198
b1 +
#199
b0 +
#200
b1 +
#201
b0 +
#202
b0 !
b1 "
b0 $
b1 +
#203
b0 +
#204
b1 +
#205
b0 +
#206
b1 +
#207
b0 +
#208
b1 +
#209
b0 +
#210
b1 +
#211
b0 +
#212
b1 +
#213
b0 +
#214
b1 #
b1 $
b1 (
b1 +
#215
b0 +
#216
b1 +
#217
b0 +
#218
b1 +
#219
b0 +
#220
b1 +
#221
b0 +
#222
b1 +
#223
b0 +
#224
b1 +
#225
b0 +
#226
b0 $
b1 +
#227
b0 +
#228
b1 +
#229
b0 +
#230
b1 +
#231
b0 +
#232
b1 +
#233
b0 +
#234
b1 +
#235
b0 +
#236
b1 +
#237
b0 +
#238
b0 #
b1 $
b0 (
b1 +
#239
b0 +
#240
b1 +
#241
b0 +
#242
b1 +
#243
b0 +
#244
b1 +
#245
b0 +
#246
b1 +
#247
b0 +
#248
b1 +
#249
b0 +
#250
b0 "
b1 +
#251
b0 +
#252
b1 +
#253
b0 +
#254
b1 +
#255
b0 +
#256
b1 +
#257
b0 +
#258
b1 +
#259
b0 +
#260
b1 +
#261
b0 +
#262
b0 $
b1 +
#263
b0 +
#264
b1 +
#265
b0 +
#266
b1 +
#267
b0 +
#268
b1 +
#269
b0 +
#270
b1 +
#271
b0 +
#272
b1 +
#273
b0 +
#274
b1 "
b1 $
b1 &
b1 (
b1 +
#275
b0 +
#276
b1 +
#277
b0 +
#278
b1 +
#279
b0 +
#280
b1 +
#281
b0 +
#282
b1 +
#283
b0 +
#284
b1 +
#285
b0 +
#286
b1 #
b0 $
b1 +
#287
b0 +
#288
b1 +
#289
b0 +
#290
b1 +
#291
b0 +
#292
b1 +
#293
b0 +
#294
b1 +
#295
b0 +
#296
b1 +
#297
b0 +
#298
b1 !
b1 $
b0 (
b1 +
#299
b0 +
#300
b1 +
#301
b0 +
#302
b1 +
#303
b0 +
#304
b1 +
#305
b0 +
#306
b1 +
#307
b0 +
#308
b1 +
#309
b0 +
#310
b0 #
b0 $
b1 +
#311
b0 +
#312
b1 +
#313
b0 +
#314
b1 +
#315
b0 +
#316
b1 +
#317
b0 +
#318
b1 +
#319
b0 +
#320
b1 +
#321
b0 +
#322
b0 "
b1 +
#323
b0 +
#324
b1 +
#325
b0 +
#326
b1 +
#327
b0 +
#328
b1 +
#329
b0 +
#330
b1 +
#331
b0 +
#332
b0 !
b1 +
#333
b0 +
#334
b1 $
b0 &
b1 +
#335
b0 +
#336
b1 +
#337
b0 +
#338
b1 +
#339
b0 +
#340
b1 +
#341
b0 +
#342
b1 +
#343
b0 +
#344
b1 +
#345
b0 +
#346
b1 !
b1 "
b0 $
b1 +
#347
b0 +
#348
b1 +
#349
b0 +
#350
b1 +
#351
b0 +
#352
b1 +
#353
b0 +
#354
b1 +
#355
b0 +
#356
b1 +
#357
b0 +
#358
b1 #
b1 $
b1 (
b1 +
#359
b0 +
#360
b1 +
#361
b0 +
#362
b1 +
#363
b0 +
#364
b1 +
#365
b0 +
#366
b1 +
#367
b0 +
#368
b1 +
#369
b0 +
#370
b0 $
b1 +
#371
b0 +
#372
b1 +
#373
b0 +
#374
b1 +
#375
b0 +
#376
b1 +
#377
b0 +
#378
b0 !
b1 +
#379
b0 +
#380
b1 +
#381
b0 +
#382
b0 #
b1 $
b0 (
b1 +
#383
b0 +
#384
b1 +
#385
b0 +
#386
b1 +
#387
b0 +
#388
b1 +
#389
b0 +
#390
b1 +
#391
b0 +
#392
b1 +
#393
b0 +
#394
b0 "
b1 +
#395
b0 +
#396
b1 +
#397
b0 +
#398
b1 +
#399
b0 +
#400
b1 +
#401
b0 +
#402
b1 +
#403
b0 +
#404
b1 +
#405
b0 +
#406
b0 $
b1 +
#407
b0 +
#408
b1 +
#409
b0 +
#410
b1 +
#411
b0 +
#412
b1 +
#413
b0 +
#414
b1 +
#415
b0 +
#416
b1 +
#417
b0 +
#418
b1 "
b1 $
b1 &
b1 (
b1 +
#419
b0 +
#420
b1 !
b1 +
#421
b0 +
#422
b1 +
#423
b0 +
#424
b1 +
#425
b0 +
#426
b1 +
#427
b0 +
#428
b1 +
#429
b0 +
#430
b1 #
b0 $
b1 +
#431
b0 +
#432
b1 +
#433
b0 +
#434
b1 +
#435
b0 +
#436
b1 +
#437
b0 +
#438
b1 +
#439
b0 +
#440
b1 +
#441
b0 +
#442
b1 $
b0 (
b1 +
#443
b0 +
#444
b1 +
#445
b0 +
#446
b1 +
#447
b0 +
#448
b1 +
#449
b0 +
#450
b1 +
#451
b0 +
#452
b1 +
#453
b0 +
#454
b0 !
b0 #
b0 $
b1 +
#455
b0 +
#456
b1 +
#457
b0 +
#458
b1 +
#459
b0 +
#460
b1 +
#461
b0 +
#462
b1 +
#463
b0 +
#464
b1 +
#465
b0 +
#466
b0 "
b1 +
#467
b0 +
#468
b1 +
#469
b0 +
#470
b1 +
#471
b0 +
#472
b1 +
#473
b0 +
#474
b1 +
#475
b0 +
#476
b1 +
#477
b0 +
#478
b1 $
b0 &
b1 +
#479
b0 +
#480
b1 !
b1 +
#481
b0 +
#482
b1 +
#483
b0 +
#484
b1 +
#485
b0 +
#486
b1 +
#487
b0 +
#488
b1 +
#489
b0 +
#490
b1 "
b0 $
b1 +
#491
b0 +
#492
b1 +
#493
b0 +
#494
b1 +
#495
b0 +
#496
b1 +
#497
b0 +
#498
b1 +
#499
b0 +
#500
b1 +
#501
b0 +
#502
b1 #
b1 $
b1 (
b1 +
#503
b0 +
#504
b1 +
#505
b0 +
#506
b1 +
#507
b0 +
#508
b1 +
#509
b0 +
#510
b1 +
#511
b0 +
#512
b1 +
#513
b0 +
#514
b0 $
b1 +
#515
b0 +
#516
b1 +
#517
b0 +
#518
b1 +
#519
b0 +
#520
b1 +
#521
b0 +
#522
b1 +
#523
b0 +
#524
b1 +
#525
b0 +
#526
b0 #
b1 $
b0 (
b1 +
#527
b0 +
#528
b1 +
#529
b0 +
#530
b1 +
#531
b0 +
#532
b1 +
#533
b0 +
#534
b1 +
#535
b0 +
#536
b1 +
#537
b0 +
#538
b0 "
b1 +
#539
b0 +
#540
b1 +
#541
b0 +
#542
b1 +
#543
b0 +
#544
b1 +
#545
b0 +
#546
b0 !
b1 +
#547
b0 +
#548
b1 +
#549
b0 +
#550
b0 $
b1 +
#551
b0 +
#552
b1 +
#553
b0 +
#554
b1 +
#555
b0 +
#556
b1 +
#557
b0 +
#558
b1 +
#559
b0 +
#560
b1 +
#561
b0 +
#562
b1 "
b1 $
b1 &
b1 (
b1 +
#563
b0 +
#564
b1 +
#565
b0 +
#566
b1 +
#567
b0 +
#568
b1 +
#569
b0 +
#570
b1 +
#571
b0 +
#572
b1 +
#573
b0 +
#574
b1 #
b0 $
b1 +
#575
b0 +
#576
b1 +
#577
b0 +
#578
b1 +
#579
b0 +
#580
b1 +
#581
b0 +
#582
b1 +
#583
b0 +
#584
b1 +
#585
b0 +
#586
b1 $
b0 (
b1 +
#587
b0 +
#588
b1 +
#589
b0 +
#590
b1 +
#591
b0 +
#592
b1 +
#593
b0 +
#594
b1 +
#595
b0 +
#596
b1 +
#597
b0 +
#598
b0 #
b0 $
b1 +
#599
b0 +
#600
b1 +
#601
b0 +
#602
b1 +
#603
b0 +
#604
b1 +
#605
b0 +
#606
b1 +
#607
b0 +
#608
b1 +
#609
b0 +
#610
b0 "
b1 +
#611
b0 +
#612
b1 +
#613
b0 +
#614
b1 +
#615
b0 +
#616
b1 +
#617
b0 +
#618
b1 +
#619
b0 +
#620
b1 +
#621
b0 +
#622
b1 $
b0 &
b1 +
#623
b0 +
#624
b1 +
#625
b0 +
#626
b1 +
#627
b0 +
#628
b1 +
#629
b0 +
#630
b1 +
#631
b0 +
#632
b1 +
#633
b0 +
#634
b1 "
b0 $
b1 +
#635
b0 +
#636
b1 +
#637
b0 +
#638
b1 +
#639
b0 +
#640
b1 +
#641
b0 +
#642
b1 +
#643
b0 +
#644
b1 +
#645
b0 +
#646
b1 #
b1 $
b1 (
b1 +
#647
b0 +
#648
b1 +
#649
b0 +
#650
b1 +
#651
b0 +
#652
b1 +
#653
b0 +
#654
b1 +
#655
b0 +
#656
b1 +
#657
b0 +
#658
b0 $
b1 +
#659
b0 +
#660
b1 +
#661
b0 +
#662
b1 +
#663
b0 +
#664
b1 +
#665
b0 +
#666
b1 +
#667
b0 +
#668
b1 +
#669
b0 +
#670
b0 #
b1 $
b0 (
b1 +
#671
b0 +
#672
b1 +
#673
b0 +
#674
b1 +
#675
b0 +
#676
b1 +
#677
b0 +
#678
b1 +
#679
b0 +
#680
b1 +
#681
b0 +
#682
b0 "
b1 +
#683
b0 +
#684
b1 +
#685
b0 +
#686
b1 +
#687
b0 +
#688
b1 +
#689
b0 +
#690
b1 +
#691
b0 +
#692
b1 +
#693
b0 +
#694
b0 $
b1 +
#695
b0 +
#696
b1 +
#697
b0 +
#698
b1 +
#699
b0 +
#700
b1 +
#701
b0 +
#702
b1 +
#703
b0 +
#704
b1 +
#705
b0 +
#706
b1 "
b1 $
b1 &
b1 (
b1 +
#707
b0 +
#708
b1 +
#709
b0 +
#710
b1 +
#711
b0 +
#712
b1 +
#713
b0 +
#714
b1 +
#715
b0 +
#716
b1 +
#717
b0 +
#718
b1 #
b0 $
b1 +
#719
b0 +
#720
b1 +
#721
b0 +
#722
b1 +
#723
b0 +
#724
b1 +
#725
b0 +
#726
b1 +
#727
b0 +
#728
b1 +
#729
b0 +
#730
b1 $
b0 (
b1 +
#731
b0 +
#732
b1 +
#733
b0 +
#734
b1 +
#735
b0 +
#736
b1 +
#737
b0 +
#738
b1 +
#739
b0 +
#740
b1 +
#741
b0 +
#742
b0 #
b0 $
b1 +
#743
b0 +
#744
b1 +
#745
b0 +
#746
b1 +
#747
b0 +
#748
b1 +
#749
b0 +
#750
b1 +
#751
b0 +
#752
b1 +
#753
b0 +
#754
b0 "
b1 +
#755
b0 +
#756
b1 +
#757
b0 +
#758
b1 +
#759
b0 +
#760
b1 +
#761
b0 +
#762
b1 +
#763
b0 +
#764
b1 +
#765
b0 +
#766
b1 $
b0 &
b1 +
#767
b0 +
#768
b1 +
#769
b0 +
#770
b1 +
#771
b0 +
#772
b1 +
#773
b0 +
#774
b1 +
#775
b0 +
#776
b1 +
#777
b0 +
#778
b1 "
b0 $
b1 +
#779
b0 +
#780
b1 +
#781
b0 +
#782
b1 +
#783
b0 +
#784
b1 +
#785
b0 +
#786
b1 +
#787
b0 +
#788
b1 +
#789
b0 +
#790
b1 #
b1 $
b1 (
b1 +
#791
b0 +
#792
b1 +
#793
b0 +
#794
b1 +
#795
b0 +
#796
b1 +
#797
b0 +
#798
b1 +
#799
b0 +
#800
b1 +
#801
b0 +
#802
b0 $
b1 +
#803
b0 +
#804
b1 +
#805
b0 +
#806
b1 +
#807
b0 +
#808
b1 +
#809
b0 +
#810
b1 +
#811
b0 +
#812
b1 +
#813
b0 +
#814
b0 #
b1 $
b0 (
b1 +
#815
b0 +
#816
b1 +
#817
b0 +
#818
b1 +
#819
b0 +
#820
b1 +
#821
b0 +
#822
b1 +
#823
b0 +
#824
b1 +
#825
b0 +
#826
b0 "
b1 +
#827
b0 +
#828
b1 +
#829
b0 +
#830
b1 +
#831
b0 +
#832
b1 +
#833
b0 +
#834
b1 +
#835
b0 +
#836
b1 +
#837
b0 +
#838
b0 $
b1 +
#839
b0 +
#840
b1 +
#841
b0 +
#842
b1 +
#843
b0 +
#844
b1 +
#845
b0 +
#846
b1 +
#847
b0 +
#848
b1 +
#849
b0 +
#850
b1 "
b1 $
b1 &
b1 (
b1 +
#851
b0 +
#852
b1 +
#853
b0 +
#854
b1 +
#855
b0 +
#856
b1 +
#857
b0 +
#858
b1 +
#859
b0 +
#860
b1 +
#861
b0 +
#862
b1 #
b0 $
b1 +
#863
b0 +
#864
b1 +
#865
b0 +
#866
b1 +
#867
b0 +
#868
b1 +
#869
b0 +
#870
b1 +
#871
b0 +
#872
b1 +
#873
b0 +
#874
b1 $
b0 (
b1 +
#875
b0 +
#876
b1 +
#877
b0 +
#878
b1 +
#879
b0 +
#880
b1 +
#881
b0 +
#882
b1 +
#883
b0 +
#884
b1 +
#885
b0 +
#886
b0 #
b0 $
b1 +
#887
b0 +
#888
b1 +
#889
b0 +
#890
b1 +
#891
b0 +
#892
b1 +
#893
b0 +
#894
b1 +
#895
b0 +
#896
b1 +
#897
b0 +
#898
b0 "
b1 +
#899
b0 +
#900
b1 +
#901
b0 +
#902
b1 +
#903
b0 +
#904
b1 +
#905
b0 +
#906
b1 +
#907
b0 +
#908
b1 +
#909
b0 +
#910
b1 $
b0 &
b1 +
#911
b0 +
#912
b1 +
#913
b0 +
#914
b1 +
#915
b0 +
#916
b1 +
#917
b0 +
#918
b1 +
#919
b0 +
#920
b1 +
#921
b0 +
#922
b1 "
b0 $
b1 +
#923
b0 +
#924
b1 +
#925
b0 +
#926
b1 +
#927
b0 +
#928
b1 +
#929
b0 +
#930
b1 +
#931
b0 +
#932
b1 +
#933
b0 +
#934
b1 #
b1 $
b1 (
b1 +
#935
b0 +
#936
b1 +
#937
b0 +
#938
b1 +
#939
b0 +
#940
b1 +
#941
b0 +
#942
b1 +
#943
b0 +
#944
b1 +
#945
b0 +
#946
b0 $
b1 +
#947
b0 +
#948
b1 +
#949
b0 +
#950
b1 +
#951
b0 +
#952
b1 +
#953
b0 +
#954
b1 +
#955
b0 +
#956
b1 +
#957
b0 +
#958
b0 #
b1 $
b0 (
b1 +
#959
b0 +
#960
b1 +
#961
b0 +
#962
b1 +
#963
b0 +
#964
b1 +
#965
b0 +
#966
b1 +
#967
b0 +
#968
b1 +
#969
b0 +
#970
b0 "
b1 +
#971
b0 +
#972
b1 +
#973
b0 +
#974
b1 +
#975
b0 +
#976
b1 +
#977
b0 +
#978
b1 +
#979
b0 +
#980
b1 +
#981
b0 +
#982
b0 $
b1 +
#983
b0 +
#984
b1 +
#985
b0 +
#986
b1 +
#987
b0 +
#988
b1 +
#989
b0 +
#990
b1 +
#991
b0 +
#992
b1 +
#993
b0 +
#994
b1 "
b1 $
b1 &
b1 (
b1 +
#995
b0 +
#996
b1 +
#997
b0 +
#998
b1 +
#999
b0 +
#1000
b1 +
#1001
b0 +
#1002
b1 +
#1003
b0 +
#1004
b1 +
#1005
b0 +
#1006
b1 #
b0 $
b1 +
#1007
b0 +
#1008
b1 +
#1009
b0 +
#1010
b1 +
#1011
b0 +
#1012
b1 +
#1013
b0 +
#1014
b1 +
#1015
b0 +
#1016
b1 +
#1017
b0 +
#1018
b1 $
b0 (
b1 +
#1019
b0 +
#1020
b1 +
#1021
b0 +
#1022
b1 +
#1023
b0 +
#1024
b1 +
#1025
b0 +
#1026
b1 +
#1027
b0 +
#1028
b1 +
#1029
b0 +
#1030
b0 #
b0 $
b1 +
#1031
b0 +
#1032
b1 +
#1033
b0 +
#1034
b1 +
#1035
b0 +
#1036
b1 +
#1037
b0 +
#1038
b1 +
#1039
b0 +
#1040
b1 +
#1041
b0 +
#1042
b0 "
b1 +
#1043
b0 +
#1044
b1 +
#1045
b0 +
#1046
b1 +
#1047
b0 +
#1048
b1 +
#1049
b0 +
#1050
b1 +
#1051
b0 +
#1052
b1 +
#1053
b0 +
#1054
b1 $
b0 &
b1 +
#1055
b0 +
#1056
b1 +
#1057
b0 +
#1058
b1 +
#1059
b0 +
#1060
b1 +
#1061
b0 +
#1062
b1 +
#1063
b0 +
#1064
b1 +
#1065
b0 +
#1066
b1 "
b0 $
b1 +
#1067
b0 +
#1068
b1 +
#1069
b0 +
#1070
b1 +
#1071
b0 +
#1072
b1 +
#1073
b0 +
#1074
b1 +
#1075
b0 +
#1076
b1 +
#1077
b0 +
#1078
b1 #
b1 $
b1 (
b1 +
#1079
b0 +
#1080
b1 +
#1081
b0 +
#1082
b1 +
#1083
b0 +
#1084
b1 +
#1085
b0 +
#1086
b1 +
#1087
b0 +
#1088
b1 +
#1089
b0 +
#1090
b0 $
b1 +
#1091
b0 +
#1092
b1 +
#1093
b0 +
#1094
b1 +
#1095
b0 +
#1096
b1 +
#1097
b0 +
#1098
b1 +
#1099
b0 +
#1100
b1 +
#1101
b0 +
#1102
b0 #
b1 $
b0 (
b1 +
#1103
b0 +
#1104
b1 +
#1105
b0 +
#1106
b1 !
b1 +
#1107
b0 +
#1108
b1 +
#1109
b0 +
#1110
b1 +
#1111
b0 +
#1112
b1 +
#1113
b0 +
#1114
b0 "
b1 +
#1115
b0 +
#1116
b1 +
#1117
b0 +
#1118
b1 +
#1119
b0 +
#1120
b1 +
#1121
b0 +
#1122
b1 +
#1123
b0 +
#1124
b1 +
#1125
b0 +
#1126
b0 $
b1 +
#1127
b0 +
#1128
b1 +
#1129
b0 +
#1130
b1 +
#1131
b0 +
#1132
b1 +
#1133
b0 +
#1134
b1 +
#1135
b0 +
#1136
b1 +
#1137
b0 +
#1138
b1 "
b1 $
b1 &
b1 (
b1 +
#1139
b0 +
#1140
b0 !
b1 +
#1141
b0 +
#1142
b1 +
#1143
b0 +
#1144
b1 +
#1145
b0 +
#1146
b1 +
#1147
b0 +
#1148
b1 +
#1149
b0 +
#1150
b1 #
b0 $
b1 +
#1151
b0 +
#1152
b1 +
#1153
b0 +
#1154
b1 +
#1155
b0 +
#1156
b1 +
#1157
b0 +
#1158
b1 +
#1159
b0 +
#1160
b1 +
#1161
b0 +
#1162
b1 $
b0 (
b1 +
#1163
b0 +
#1164
b1 +
#1165
b0 +
#1166
b1 !
b1 +
#1167
b0 +
#1168
b1 +
#1169
b0 +
#1170
b1 +
#1171
b0 +
#1172
b1 +
#1173
b0 +
#1174
b0 #
b0 $
b1 +
#1175
b0 +
#1176
b1 +
#1177
b0 +
#1178
b1 +
#1179
b0 +
#1180
b1 +
#1181
b0 +
#1182
b1 +
#1183
b0 +
#1184
b1 +
#1185
b0 +
#1186
b0 "
b1 +
#1187
b0 +
#1188
b1 +
#1189
b0 +
#1190
b1 +
#1191
b0 +
#1192
b1 +
#1193
b0 +
#1194
b1 +
#1195
b0 +
#1196
b1 +
#1197
b0 +
#1198
b1 $
b0 &
b1 +
#1199
b0 +
#1200
b0 !
b1 +
#1201
b0 +
#1202
b1 +
#1203
b0 +
#1204
b1 +
#1205
b0 +
#1206
b1 +
#1207
b0 +
#1208
b1 +
#1209
b0 +
#1210
b1 "
b0 $
b1 +
#1211
b0 +
#1212
b1 +
#1213
b0 +
#1214
b1 +
#1215
b0 +
#1216
b1 +
#1217
b0 +
#1218
b1 +
#1219
b0 +
#1220
b1 +
#1221
b0 +
#1222
b1 #
b1 $
b1 (
b1 +
#1223
b0 +
#1224
b1 !
b1 +
#1225
b0 +
#1226
b1 +
#1227
b0 +
#1228
b1 +
#1229
b0 +
#1230
b1 +
#1231
b0 +
#1232
b1 +
#1233
b0 +
#1234
b0 $
b1 +
#1235
b0 +
#1236
b1 +
#1237
b0 +
#1238
b1 +
#1239
b0 +
#1240
b1 +
#1241
b0 +
#1242
b1 +
#1243
b0 +
#1244
b1 +
#1245
b0 +
#1246
b0 #
b1 $
b0 (
b1 +
#1247
b0 +
#1248
b1 +
#1249
b0 +
#1250
b1 +
#1251
b0 +
#1252
b1 +
#1253
b0 +
#1254
b1 +
#1255
b0 +
#1256
b0 !
b1 +
#1257
b0 +
#1258
b0 "
b1 +
#1259
b0 +
#1260
b1 +
#1261
b0 +
#1262
b1 +
#1263
b0 +
#1264
b1 +
#1265
b0 +
#1266
b1 +
#1267
b0 +
#1268
b1 +
#1269
b0 +
#1270
b0 $
b1 +
#1271
b0 +
#1272
b1 +
#1273
b0 +
#1274
b1 +
#1275
b0 +
#1276
b1 +
#1277
b0 +
#1278
b1 +
#1279
b0 +
#1280
b1 !
b1 +
#1281
b0 +
#1282
b1 "
b1 $
b1 &
b1 (
b1 +
#1283
b0 +
#1284
b1 +
#1285
b0 +
#1286
b1 +
#1287
b0 +
#1288
b1 +
#1289
b0 +
#1290
b1 +
#1291
b0 +
#1292
b1 +
#1293
b0 +
#1294
b1 #
b0 $
b1 +
#1295
b0 +
#1296
b1 +
#1297
b0 +
#1298
b1 +
#1299
b0 +
#1300
b1 +
#1301
b0 +
#1302
b1 +
#1303
b0 +
#1304
b1 +
#1305
b0 +
#1306
b1 $
b0 (
b1 +
#1307
b0 +
#1308
b1 +
#1309
b0 +
#1310
b1 +
#1311
b0 +
#1312
b0 !
b1 +
#1313
b0 +
#1314
b1 +
#1315
b0 +
#1316
b1 +
#1317
b0 +
#1318
b0 #
b0 $
b1 +
#1319
b0 +
#1320
b1 +
#1321
b0 +
#1322
b1 +
#1323
b0 +
#1324
b1 +
#1325
b0 +
#1326
b1 +
#1327
b0 +
#1328
b1 +
#1329
b0 +
#1330
b0 "
b1 +
#1331
b0 +
#1332
b1 +
#1333
b0 +
#1334
b1 !
b1 +
#1335
b0 +
#1336
b1 +
#1337
b0 +
#1338
b1 +
#1339
b0 +
#1340
b1 +
#1341
b0 +
#1342
b1 $
b0 &
b1 +
#1343
b0 +
#1344
b1 +
#1345
b0 +
#1346
b1 +
#1347
b0 +
#1348
b1 +
#1349
b0 +
#1350
b1 +
#1351
b0 +
#1352
b1 +
#1353
b0 +
#1354
b1 "
b0 $
b1 +
#1355
b0 +
#1356
b1 +
#1357
b0 +
#1358
b1 +
#1359
b0 +
#1360
b1 +
#1361
b0 +
#1362
b1 +
#1363
b0 +
#1364
b1 +
#1365
b0 +
#1366
b1 #
b1 $
b1 (
b1 +
#1367
b0 +
#1368
b1 +
#1369
b0 +
#1370
b1 +
#1371
b0 +
#1372
b0 !
b1 +
#1373
b0 +
#1374
b1 +
#1375
b0 +
#1376
b1 +
#1377
b0 +
#1378
b0 $
b1 +
#1379
b0 +
#1380
b1 +
#1381
b0 +
#1382
b1 +
#1383
b0 +
#1384
b1 +
#1385
b0 +
#1386
b1 +
#1387
b0 +
#1388
b1 +
#1389
b0 +
#1390
b0 #
b1 $
b0 (
b1 +
#1391
b0 +
#1392
b1 +
#1393
b0 +
#1394
b1 +
#1395
b0 +
#1396
b1 +
#1397
b0 +
#1398
b1 +
#1399
b0 +
#1400
b1 +
#1401
b0 +
#1402
b0 "
b1 +
#1403
b0 +
#1404
b1 +
#1405
b0 +
#1406
b1 +
#1407
b0 +
#1408
b1 +
#1409
b0 +
#1410
b1 +
#1411
b0 +
#1412
b1 +
#1413
b0 +
#1414
b0 $
b1 +
#1415
b0 +
#1416
b1 +
#1417
b0 +
#1418
b1 +
#1419
b0 +
#1420
b1 +
#1421
b0 +
#1422
b1 +
#1423
b0 +
#1424
b1 +
#1425
b0 +
#1426
b1 "
b1 $
b1 &
b1 (
b1 +
#1427
b0 +
#1428
b1 +
#1429
b0 +
#1430
b1 +
#1431
b0 +
#1432
b1 +
#1433
b0 +
#1434
b1 +
#1435
b0 +
#1436
b1 +
#1437
b0 +
#1438
b1 #
b0 $
b1 +
#1439
b0 +
#1440
b1 +
#1441
b0 +
#1442
b1 +
#1443
b0 +
#1444
b1 +
#1445
b0 +
#1446
b1 +
#1447
b0 +
#1448
b1 +
#1449
b0 +
#1450
b1 $
b0 (
b1 +
#1451
b0 +
#1452
b1 +
#1453
b0 +
#1454
b1 +
#1455
b0 +
#1456
b1 +
#1457
b0 +
#1458
b1 +
#1459
b0 +
#1460
b1 +
#1461
b0 +
#1462
b0 #
b0 $
b1 +
#1463
b0 +
#1464
b1 +
#1465
b0 +
#1466
b1 +
#1467
b0 +
#1468
b1 +
#1469
b0 +
#1470
b1 +
#1471
b0 +
#1472
b1 +
#1473
b0 +
#1474
b0 "
b1 +
#1475
b0 +
#1476
b1 +
#1477
b0 +
#1478
b1 +
#1479
b0 +
#1480
b1 +
#1481
b0 +
#1482
b1 +
#1483
b0 +
#1484
b1 +
#1485
b0 +
#1486
b1 $
b0 &
b1 +
#1487
b0 +
#1488
b1 +
#1489
b0 +
#1490
b1 +
#1491
b0 +
#1492
b1 +
#1493
b0 +
#1494
b1 +
#1495
b0 +
#1496
b1 +
#1497
b0 +
#1498
b1 "
b0 $
b1 +
#1499
b0 +
#1500
b1 +
#1501
b0 +
#1502
b1 +
#1503
b0 +
#1504
b1 +
#1505
b0 +
#1506
b1 +
#1507
b0 +
#1508
b1 +
#1509
b0 +
#1510
b1 #
b1 $
b1 (
b1 +
#1511
b0 +
#1512
b1 +
#1513
b0 +
#1514
b1 +
#1515
b0 +
#1516
b1 +
#1517
b0 +
#1518
b1 +
#1519
b0 +
#1520
b1 +
#1521
b0 +
#1522
b0 $
b1 +
#1523
b0 +
#1524
b1 +
#1525
b0 +
#1526
b1 +
#1527
b0 +
#1528
b1 +
#1529
b0 +
#1530
b1 +
#1531
b0 +
#1532
b1 +
#1533
b0 +
#1534
b1 !
b0 #
b1 $
b0 (
b1 +
#1535
b0 +
#1536
b1 +
#1537
b0 +
#1538
b1 +
#1539
b0 +
#1540
b1 +
#1541
b0 +
#1542
b1 +
#1543
b0 +
#1544
b1 +
#1545
b0 +
#1546
b0 "
b1 +
#1547
b0 +
#1548
b1 +
#1549
b0 +
#1550
b1 +
#1551
b0 +
#1552
b1 +
#1553
b0 +
#1554
b1 +
#1555
b0 +
#1556
b1 +
#1557
b0 +
#1558
b0 $
b1 +
#1559
b0 +
#1560
b1 +
#1561
b0 +
#1562
b1 +
#1563
b0 +
#1564
b1 +
#1565
b0 +
#1566
b1 +
#1567
b0 +
#1568
b0 !
b1 +
#1569
b0 +
#1570
b1 "
b1 $
b1 &
b1 (
b1 +
#1571
b0 +
#1572
b1 +
#1573
b0 +
#1574
b1 +
#1575
b0 +
#1576
b1 +
