dump.vcd
$date
	2023-04-25 23:09
$end
$timescale 5000ps $end
$scope dumped_signals $end
$var wire 1 ! __main___basesoc_ibus_stb $end
$var wire 1 " __main___basesoc_ibus_cyc $end
$var wire 30 # __main___basesoc_ibus_adr $end
$var wire 1 $ __main___basesoc_ibus_we $end
$var wire 1 % __main___basesoc_ibus_ack $end
$var wire 4 & __main___basesoc_ibus_sel $end
$var wire 32 ' __main___basesoc_ibus_dat_w $end
$var wire 32 ( __main___basesoc_ibus_dat_r $end
$var wire 1 ) oe $end
$var wire 1 * lat $end
$var wire 1 + sclk $end
$var wire 1 , r0 $end
$var wire 1 - r1 $end
$var wire 1 . g0 $end
$var wire 1 / g1 $end
$var wire 1 0 b0 $end
$var wire 1 1 b1 $end
$var wire 1 2 __main___basesoc_dbus_stb $end
$var wire 1 3 __main___basesoc_dbus_cyc $end
$var wire 30 4 __main___basesoc_dbus_adr $end
$var wire 1 5 __main___basesoc_dbus_we $end
$var wire 1 6 __main___basesoc_dbus_ack $end
$var wire 4 7 __main___basesoc_dbus_sel $end
$var wire 32 8 __main___basesoc_dbus_dat_w $end
$var wire 32 9 __main___basesoc_dbus_dat_r $end
$var wire 1 : scope_clk $end
$var wire 1 ; scope_trig $end
$unscope  $end
$enddefinitions  $end
$dumpvars
bx !
bx "
bxxxxxxxxxxxxxxxxxxxxxxxxxxxxxx #
bx $
bx %
bxxxx &
bxxxxxxxxxxxxxxxxxxxxxxxxxxxxxxxx '
bxxxxxxxxxxxxxxxxxxxxxxxxxxxxxxxx (
bx )
bx *
bx +
bx ,
bx -
bx .
bx /
bx 0
bx 1
bx 2
bx 3
bxxxxxxxxxxxxxxxxxxxxxxxxxxxxxx 4
bx 5
bx 6
bxxxx 7
bxxxxxxxxxxxxxxxxxxxxxxxxxxxxxxxx 8
bxxxxxxxxxxxxxxxxxxxxxxxxxxxxxxxx 9
bx :
bx ;
$end
#0
b0 !
b0 "
b010000000000000001001110011000 #
b0 $
b0 %
b1111 &
b00000000000000000000000000000000 '
b00000000000000000000000000000000 (
b0 )
b0 *
b0 +
b0 ,
b0 -
b0 .
b0 /
b0 0
b0 1
b0 2
b0 3
b010000000000000011110011001011 4
b1 5
b0 6
b0001 7
b00000000000000000000000000000000 8
b00000000000000000000000000000000 9
b1 :
b0 ;
#1
b0 :
#2
b1 +
b010000000000000110000101111100 4
b0 5
b1111 7
b00000100000001000000010000000100 8
b1 :
#3
b0 :
#4
b0 +
b010000000000000011110011001011 4
b1 5
b0001 7
b00000000000000000000000000000000 8
b1 :
#5
b0 :
#6
b1 +
b010000000000000110000101111100 4
b0 5
b1111 7
b00000100000001000000010000000100 8
b1 :
#7
b0 :
#8
b0 +
b010000000000000011110011001011 4
b1 5
b0001 7
b00000000000000000000000000000000 8
b1 :
#9
b0 :
#10
b1 +
b010000000000000110000101111100 4
b0 5
b1111 7
b00000100000001000000010000000100 8
b1 :
#11
b0 :
#12
b0 +
b010000000000000011110011001011 4
b1 5
b0001 7
b00000000000000000000000000000000 8
b1 :
#13
b0 :
#14
b1 +
b010000000000000110000101111100 4
b0 5
b1111 7
b00000100000001000000010000000100 8
b1 :
#15
b0 :
#16
b0 +
b010000000000000011110011001011 4
b1 5
b0001 7
b00000000000000000000000000000000 8
b1 :
#17
b0 :
#18
b1 +
b010000000000000110000101111100 4
b0 5
b1111 7
b00000100000001000000010000000100 8
b1 :
#19
b0 :
#20
b0 +
b010000000000000011110011001011 4
b1 5
b0001 7
b00000000000000000000000000000000 8
b1 :
#21
b0 :
#22
b1 +
b010000000000000110000101111100 4
b0 5
b1111 7
b00000100000001000000010000000100 8
b1 :
#23
b0 :
#24
b0 +
b010000000000000011110011001011 4
b1 5
b0001 7
b00000000000000000000000000000000 8
b1 :
#25
b0 :
#26
b1 +
b010000000000000110000101111100 4
b0 5
b1111 7
b00000100000001000000010000000100 8
b1 :
#27
b0 :
#28
b0 +
b010000000000000011110011001011 4
b1 5
b0001 7
b00000000000000000000000000000000 8
b1 :
#29
b0 :
#30
b1 +
b010000000000000110000101111100 4
b0 5
b1111 7
b00000100000001000000010000000100 8
b1 :
#31
b0 :
#32
b0 +
b010000000000000011110011001011 4
b1 5
b0001 7
b00000000000000000000000000000000 8
b1 :
b1 ;
#33
b0 :
#34
b1 +
b010000000000000110000101111100 4
b0 5
b1111 7
b00000100000001000000010000000100 8
b1 :
#35
b0 :
#36
b0 +
b010000000000000011110011001011 4
b1 5
b0001 7
b00000000000000000000000000000000 8
b1 :
#37
b0 :
#38
b1 +
b010000000000000110000101111100 4
b0 5
b1111 7
b00000100000001000000010000000100 8
b1 :
#39
b0 :
#40
b0 +
b010000000000000011110011001011 4
b1 5
b0001 7
b00000000000000000000000000000000 8
b1 :
#41
b0 :
#42
b1 +
b010000000000000110000101111100 4
b0 5
b1111 7
b00000100000001000000010000000100 8
b1 :
#43
b0 :
#44
b0 +
b010000000000000011110011001011 4
b1 5
b0001 7
b00000000000000000000000000000000 8
b1 :
#45
b0 :
#46
b1 +
b010000000000000110000101111100 4
b0 5
b1111 7
b00000100000001000000010000000100 8
b1 :
#47
b0 :
#48
b0 +
b010000000000000011110011001011 4
b1 5
b0001 7
b00000000000000000000000000000000 8
b1 :
#49
b0 :
#50
b1 +
b010000000000000110000101111100 4
b0 5
b1111 7
b00000100000001000000010000000100 8
b1 :
#51
b0 :
#52
b0 +
b010000000000000011110011001011 4
b1 5
b0001 7
b00000000000000000000000000000000 8
b1 :
#53
b0 :
#54
b1 +
b010000000000000110000101111100 4
b0 5
b1111 7
b00000100000001000000010000000100 8
b1 :
#55
b0 :
#56
b0 +
b010000000000000011110011001011 4
b1 5
b0001 7
b00000000000000000000000000000000 8
b1 :
#57
b0 :
#58
b1 +
b010000000000000110000101111100 4
b0 5
b1111 7
b00000100000001000000010000000100 8
b1 :
#59
b0 :
#60
b0 +
b010000000000000011110011001011 4
b1 5
b0001 7
b00000000000000000000000000000000 8
b1 :
#61
b0 :
#62
b1 +
b010000000000000110000101111100 4
b0 5
b1111 7
b00000100000001000000010000000100 8
b1 :
#63
b0 :
#64
b0 +
b010000000000000011110011001011 4
b1 5
b0001 7
b00000000000000000000000000000000 8
b1 :
#65
b0 :
#66
b1 +
b010000000000000110000101111100 4
b0 5
b1111 7
b00000100000001000000010000000100 8
b1 :
#67
b0 :
#68
b0 +
b010000000000000011110011001011 4
b1 5
b0001 7
b00000000000000000000000000000000 8
b1 :
#69
b0 :
#70
b1 +
b010000000000000110000101111100 4
b0 5
b1111 7
b00000100000001000000010000000100 8
b1 :
#71
b0 :
#72
b0 +
b010000000000000011110011001011 4
b1 5
b0001 7
b00000000000000000000000000000000 8
b1 :
#73
b0 :
#74
b1 +
b010000000000000110000101111100 4
b0 5
b1111 7
b00000100000001000000010000000100 8
b1 :
#75
b0 :
#76
b0 +
b010000000000000011110011001011 4
b1 5
b0001 7
b00000000000000000000000000000000 8
b1 :
#77
b0 :
#78
b1 +
b010000000000000110000101111100 4
b0 5
b1111 7
b00000100000001000000010000000100 8
b1 :
#79
b0 :
#80
b0 +
b010000000000000011110011001011 4
b1 5
b0001 7
b00000000000000000000000000000000 8
b1 :
#81
b0 :
#82
b1 +
b010000000000000110000101111100 4
b0 5
b1111 7
b00000100000001000000010000000100 8
b1 :
#83
b0 :
#84
b0 +
b010000000000000011110011001011 4
b1 5
b0001 7
b00000000000000000000000000000000 8
b1 :
#85
b0 :
#86
b1 +
b010000000000000110000101111100 4
b0 5
b1111 7
b00000100000001000000010000000100 8
b1 :
#87
b0 :
#88
b0 +
b010000000000000011110011001011 4
b1 5
b0001 7
b00000000000000000000000000000000 8
b1 :
#89
b0 :
#90
b1 +
b010000000000000110000101111100 4
b0 5
b1111 7
b00000100000001000000010000000100 8
b1 :
#91
b0 :
#92
b0 +
b010000000000000011110011001011 4
b1 5
b0001 7
b00000000000000000000000000000000 8
b1 :
#93
b0 :
#94
b1 +
b010000000000000110000101111100 4
b0 5
b1111 7
b00000100000001000000010000000100 8
b1 :
#95
b0 :
#96
b0 +
b010000000000000011110011001011 4
b1 5
b0001 7
b00000000000000000000000000000000 8
b1 :
#97
b0 :
#98
b1 +
b010000000000000110000101111100 4
b0 5
b1111 7
b00000100000001000000010000000100 8
b1 :
#99
b0 :
#100
b0 +
b010000000000000011110011001011 4
b1 5
b0001 7
b00000000000000000000000000000000 8
b1 :
#101
b0 :
#102
b1 +
b010000000000000110000101111100 4
b0 5
b1111 7
b00000100000001000000010000000100 8
b1 :
#103
b0 :
#104
b0 +
b010000000000000011110011001011 4
b1 5
b0001 7
b00000000000000000000000000000000 8
b1 :
#105
b0 :
#106
b1 +
b010000000000000110000101111100 4
b0 5
b1111 7
b00000100000001000000010000000100 8
b1 :
#107
b0 :
#108
b0 +
b010000000000000011110011001011 4
b1 5
b0001 7
b00000000000000000000000000000000 8
b1 :
#109
b0 :
#110
b1 +
b010000000000000110000101111100 4
b0 5
b1111 7
b00000100000001000000010000000100 8
b1 :
#111
b0 :
#112
b0 +
b010000000000000011110011001011 4
b1 5
b0001 7
b00000000000000000000000000000000 8
b1 :
#113
b0 :
#114
b1 +
b010000000000000110000101111100 4
b0 5
b1111 7
b00000100000001000000010000000100 8
b1 :
#115
b0 :
#116
b0 +
b010000000000000011110011001011 4
b1 5
b0001 7
b00000000000000000000000000000000 8
b1 :
#117
b0 :
#118
b1 +
b010000000000000110000101111100 4
b0 5
b1111 7
b00000100000001000000010000000100 8
b1 :
#119
b0 :
#120
b0 +
b010000000000000011110011001011 4
b1 5
b0001 7
b00000000000000000000000000000000 8
b1 :
#121
b0 :
#122
b1 +
b010000000000000110000101111100 4
b0 5
b1111 7
b00000100000001000000010000000100 8
b1 :
#123
b0 :
#124
b0 +
b010000000000000011110011001011 4
b1 5
b0001 7
b00000000000000000000000000000000 8
b1 :
#125
b0 :
#126
b1 +
b010000000000000110000101111100 4
b0 5
b1111 7
b00000100000001000000010000000100 8
b1 :
#127
b0 :
#128
b0 +
b010000000000000011110011001011 4
b1 5
b0001 7
b00000000000000000000000000000000 8
b1 :
#129
b0 :
#130
b1 +
b010000000000000110000101111100 4
b0 5
b1111 7
b00000100000001000000010000000100 8
b1 :
#131
b0 :
#132
b0 +
b010000000000000011110011001011 4
b1 5
b0001 7
b00000000000000000000000000000000 8
b1 :
#133
b0 :
#134
b1 +
b010000000000000110000101111100 4
b0 5
b1111 7
b00000100000001000000010000000100 8
b1 :
#135
b0 :
#136
b0 +
b010000000000000011110011001011 4
b1 5
b0001 7
b00000000000000000000000000000000 8
b1 :
#137
b0 :
#138
b1 +
b010000000000000110000101111100 4
b0 5
b1111 7
b00000100000001000000010000000100 8
b1 :
#139
b0 :
#140
b0 +
b010000000000000011110011001011 4
b1 5
b0001 7
b00000000000000000000000000000000 8
b1 :
#141
b0 :
#142
b1 +
b010000000000000110000101111100 4
b0 5
b1111 7
b00000100000001000000010000000100 8
b1 :
#143
b0 :
#144
b0 +
b010000000000000011110011001011 4
b1 5
b0001 7
b00000000000000000000000000000000 8
b1 :
#145
b0 :
#146
b1 +
b010000000000000110000101111100 4
b0 5
b1111 7
b00000100000001000000010000000100 8
b1 :
#147
b0 :
#148
b010000000000000011110011001011 4
b1 5
b0001 7
b00000000000000000000000000000000 8
b1 :
#149
b0 :
#150
b1 )
b010000000000000110000101111100 4
b0 5
b1111 7
b00000100000001000000010000000100 8
b1 :
#151
b0 :
#152
b1 *
b010000000000000011110011001011 4
b1 5
b0001 7
b00000000000000000000000000000000 8
b1 :
#153
b0 :
#154
b010000000000000110000101111100 4
b0 5
b1111 7
b00000100000001000000010000000100 8
b1 :
#155
b0 :
#156
b0 *
b010000000000000011110011001011 4
b1 5
b0001 7
b00000000000000000000000000000000 8
b1 :
#157
b0 :
#158
b0 )
b010000000000000110000101111100 4
b0 5
b1111 7
b00000100000001000000010000000100 8
b1 :
#159
b0 :
#160
b0 +
b010000000000000011110011001011 4
b1 5
b0001 7
b00000000000000000000000000000000 8
b1 :
#161
b0 :
#162
b1 +
b010000000000000110000101111100 4
b0 5
b1111 7
b00000100000001000000010000000100 8
b1 :
#163
b0 :
#164
b0 +
b010000000000000011110011001011 4
b1 5
b0001 7
b00000000000000000000000000000000 8
b1 :
#165
b0 :
#166
b1 +
b010000000000000110000101111100 4
b0 5
b1111 7
b00000100000001000000010000000100 8
b1 :
#167
b0 :
#168
b0 +
b010000000000000011110011001011 4
b1 5
b0001 7
b00000000000000000000000000000000 8
b1 :
#169
b0 :
#170
b1 +
b010000000000000110000101111100 4
b0 5
b1111 7
b00000100000001000000010000000100 8
b1 :
#171
b0 :
#172
b0 +
b010000000000000011110011001011 4
b1 5
b0001 7
b00000000000000000000000000000000 8
b1 :
#173
b0 :
#174
b1 +
b010000000000000110000101111100 4
b0 5
b1111 7
b00000100000001000000010000000100 8
b1 :
#175
b0 :
#176
b0 +
b010000000000000011110011001011 4
b1 5
b0001 7
b00000000000000000000000000000000 8
b1 :
#177
b0 :
#178
b1 +
b010000000000000110000101111100 4
b0 5
b1111 7
b00000100000001000000010000000100 8
b1 :
#179
b0 :
#180
b0 +
b010000000000000011110011001011 4
b1 5
b0001 7
b00000000000000000000000000000000 8
b1 :
#181
b0 :
#182
b1 +
b010000000000000110000101111100 4
b0 5
b1111 7
b00000100000001000000010000000100 8
b1 :
#183
b0 :
#184
b0 +
b010000000000000011110011001011 4
b1 5
b0001 7
b00000000000000000000000000000000 8
b1 :
#185
b0 :
#186
b1 +
b010000000000000110000101111100 4
b0 5
b1111 7
b00000100000001000000010000000100 8
b1 :
#187
b0 :
#188
b0 +
b010000000000000011110011001011 4
b1 5
b0001 7
b00000000000000000000000000000000 8
b1 :
#189
b0 :
#190
b1 +
b010000000000000110000101111100 4
b0 5
b1111 7
b00000100000001000000010000000100 8
b1 :
#191
b0 :
#192
b0 +
b010000000000000011110011001011 4
b1 5
b0001 7
b00000000000000000000000000000000 8
b1 :
#193
b0 :
#194
b1 +
b010000000000000110000101111100 4
b0 5
b1111 7
b00000100000001000000010000000100 8
b1 :
#195
b0 :
#196
b0 +
b010000000000000011110011001011 4
b1 5
b0001 7
b00000000000000000000000000000000 8
b1 :
#197
b0 :
#198
b1 +
b010000000000000110000101111100 4
b0 5
b1111 7
b00000100000001000000010000000100 8
b1 :
#199
b0 :
#200
b0 +
b010000000000000011110011001011 4
b1 5
b0001 7
b00000000000000000000000000000000 8
b1 :
#201
b0 :
#202
b1 +
b010000000000000110000101111100 4
b0 5
b1111 7
b00000100000001000000010000000100 8
b1 :
#203
b0 :
#204
b0 +
b010000000000000011110011001011 4
b1 5
b0001 7
b00000000000000000000000000000000 8
b1 :
#205
b0 :
#206
b1 +
b010000000000000110000101111100 4
b0 5
b1111 7
b00000100000001000000010000000100 8
b1 :
#207
b0 :
#208
b0 +
b010000000000000011110011001011 4
b1 5
b0001 7
b00000000000000000000000000000000 8
b1 :
#209
b0 :
#210
b1 +
b010000000000000110000101111100 4
b0 5
b1111 7
b00000100000001000000010000000100 8
b1 :
#211
b0 :
#212
b0 +
b010000000000000011110011001011 4
b1 5
b0001 7
b00000000000000000000000000000000 8
b1 :
#213
b0 :
#214
b1 +
b010000000000000110000101111100 4
b0 5
b1111 7
b00000100000001000000010000000100 8
b1 :
#215
b0 :
#216
b0 +
b010000000000000011110011001011 4
b1 5
b0001 7
b00000000000000000000000000000000 8
b1 :
#217
b0 :
#218
b1 +
b010000000000000110000101111100 4
b0 5
b1111 7
b00000100000001000000010000000100 8
b1 :
#219
b0 :
#220
b0 +
b010000000000000011110011001011 4
b1 5
b0001 7
b00000000000000000000000000000000 8
b1 :
#221
b0 :
#222
b1 +
b010000000000000110000101111100 4
b0 5
b1111 7
b00000100000001000000010000000100 8
b1 :
#223
b0 :
#224
b0 +
b010000000000000011110011001011 4
b1 5
b0001 7
b00000000000000000000000000000000 8
b1 :
#225
b0 :
#226
b1 +
b010000000000000110000101111100 4
b0 5
b1111 7
b00000100000001000000010000000100 8
b1 :
#227
b0 :
#228
b0 +
b010000000000000011110011001011 4
b1 5
b0001 7
b00000000000000000000000000000000 8
b1 :
#229
b0 :
#230
b1 +
b010000000000000110000101111100 4
b0 5
b1111 7
b00000100000001000000010000000100 8
b1 :
#231
b0 :
#232
b0 +
b010000000000000011110011001011 4
b1 5
b0001 7
b00000000000000000000000000000000 8
b1 :
#233
b0 :
#234
b1 +
b010000000000000110000101111100 4
b0 5
b1111 7
b00000100000001000000010000000100 8
b1 :
#235
b0 :
#236
b0 +
b010000000000000011110011001011 4
b1 5
b0001 7
b00000000000000000000000000000000 8
b1 :
#237
b0 :
#238
b1 +
b010000000000000110000101111100 4
b0 5
b1111 7
b00000100000001000000010000000100 8
b1 :
#239
b0 :
#240
b0 +
b010000000000000011110011001011 4
b1 5
b0001 7
b00000000000000000000000000000000 8
b1 :
#241
b0 :
#242
b1 +
b010000000000000110000101111100 4
b0 5
b1111 7
b00000100000001000000010000000100 8
b1 :
#243
b0 :
#244
b0 +
b010000000000000011110011001011 4
b1 5
b0001 7
b00000000000000000000000000000000 8
b1 :
#245
b0 :
#246
b1 +
b010000000000000110000101111100 4
b0 5
b1111 7
b00000100000001000000010000000100 8
b1 :
#247
b0 :
#248
b0 +
b010000000000000011110011001011 4
b1 5
b0001 7
b00000000000000000000000000000000 8
b1 :
#249
b0 :
#250
b1 +
b010000000000000110000101111100 4
b0 5
b1111 7
b00000100000001000000010000000100 8
b1 :
#251
b0 :
#252
b0 +
b010000000000000011110011001011 4
b1 5
b0001 7
b00000000000000000000000000000000 8
b1 :
#253
b0 :
#254
b1 +
b010000000000000110000101111100 4
b0 5
b1111 7
b00000100000001000000010000000100 8
b1 :
#255
b0 :
#256
b0 +
b010000000000000011110011001011 4
b1 5
b0001 7
b00000000000000000000000000000000 8
b1 :
#257
b0 :
#258
b1 +
b010000000000000110000101111100 4
b0 5
b1111 7
b00000100000001000000010000000100 8
b1 :
#259
b0 :
#260
b0 +
b010000000000000011110011001011 4
b1 5
b0001 7
b00000000000000000000000000000000 8
b1 :
#261
b0 :
#262
b1 +
b010000000000000110000101111100 4
b0 5
b1111 7
b00000100000001000000010000000100 8
b1 :
#263
b0 :
#264
b0 +
b010000000000000011110011001011 4
b1 5
b0001 7
b00000000000000000000000000000000 8
b1 :
#265
b0 :
#266
b1 +
b010000000000000110000101111100 4
b0 5
b1111 7
b00000100000001000000010000000100 8
b1 :
#267
b0 :
#268
b0 +
b010000000000000011110011001011 4
b1 5
b0001 7
b00000000000000000000000000000000 8
b1 :
#269
b0 :
#270
b1 +
b010000000000000110000101111100 4
b0 5
b1111 7
b00000100000001000000010000000100 8
b1 :
#271
b0 :
#272
b0 +
b010000000000000011110011001011 4
b1 5
b0001 7
b00000000000000000000000000000000 8
b1 :
#273
b0 :
#274
b1 +
b010000000000000110000101111100 4
b0 5
b1111 7
b00000100000001000000010000000100 8
b1 :
#275
b0 :
#276
b0 +
b010000000000000011110011001011 4
b1 5
b0001 7
b00000000000000000000000000000000 8
b1 :
#277
b0 :
#278
b1 +
b010000000000000110000101111100 4
b0 5
b1111 7
b00000100000001000000010000000100 8
b1 :
#279
b0 :
#280
b0 +
b010000000000000011110011001011 4
b1 5
b0001 7
b00000000000000000000000000000000 8
b1 :
#281
b0 :
#282
b1 +
b010000000000000110000101111100 4
b0 5
b1111 7
b00000100000001000000010000000100 8
b1 :
#283
b0 :
#284
b0 +
b010000000000000011110011001011 4
b1 5
b0001 7
b00000000000000000000000000000000 8
b1 :
#285
b0 :
#286
b1 +
b010000000000000110000101111100 4
b0 5
b1111 7
b00000100000001000000010000000100 8
b1 :
#287
b0 :
#288
b0 +
b010000000000000011110011001011 4
b1 5
b0001 7
b00000000000000000000000000000000 8
b1 :
#289
b0 :
#290
b1 +
b010000000000000110000101111100 4
b0 5
b1111 7
b00000100000001000000010000000100 8
b1 :
#291
b0 :
#292
b0 +
b010000000000000011110011001011 4
b1 5
b0001 7
b00000000000000000000000000000000 8
b1 :
#293
b0 :
#294
b1 +
b010000000000000110000101111100 4
b0 5
b1111 7
b00000100000001000000010000000100 8
b1 :
#295
b0 :
#296
b0 +
b010000000000000011110011001011 4
b1 5
b0001 7
b00000000000000000000000000000000 8
b1 :
#297
b0 :
#298
b1 +
b010000000000000110000101111100 4
b0 5
b1111 7
b00000100000001000000010000000100 8
b1 :
#299
b0 :
#300
b0 +
b010000000000000011110011001011 4
b1 5
b0001 7
b00000000000000000000000000000000 8
b1 :
#301
b0 :
#302
b1 +
b010000000000000110000101111100 4
b0 5
b1111 7
b00000100000001000000010000000100 8
b1 :
#303
b0 :
#304
b0 +
b010000000000000011110011001011 4
b1 5
b0001 7
b00000000000000000000000000000000 8
b1 :
#305
b0 :
#306
b1 +
b010000000000000110000101111100 4
b0 5
b1111 7
b00000100000001000000010000000100 8
b1 :
#307
b0 :
#308
b0 +
b010000000000000011110011001011 4
b1 5
b0001 7
b00000000000000000000000000000000 8
b1 :
#309
b0 :
#310
b1 +
b010000000000000110000101111100 4
b0 5
b1111 7
b00000100000001000000010000000100 8
b1 :
#311
b0 :
#312
b0 +
b010000000000000011110011001011 4
b1 5
b0001 7
b00000000000000000000000000000000 8
b1 :
#313
b0 :
#314
b1 +
b010000000000000110000101111100 4
b0 5
b1111 7
b00000100000001000000010000000100 8
b1 :
#315
b0 :
#316
b0 +
b010000000000000011110011001011 4
b1 5
b0001 7
b00000000000000000000000000000000 8
b1 :
#317
b0 :
#318
b1 +
b010000000000000110000101111100 4
b0 5
b1111 7
b00000100000001000000010000000100 8
b1 :
#319
b0 :
#320
b0 +
b010000000000000011110011001011 4
b1 5
b0001 7
b00000000000000000000000000000000 8
b1 :
#321
b0 :
#322
b1 +
b010000000000000110000101111100 4
b0 5
b1111 7
b00000100000001000000010000000100 8
b1 :
#323
b0 :
#324
b0 +
b010000000000000011110011001011 4
b1 5
b0001 7
b00000000000000000000000000000000 8
b1 :
#325
b0 :
#326
b1 +
b010000000000000110000101111100 4
b0 5
b1111 7
b00000100000001000000010000000100 8
b1 :
#327
b0 :
#328
b0 +
b010000000000000011110011001011 4
b1 5
b0001 7
b00000000000000000000000000000000 8
b1 :
#329
b0 :
#330
b1 +
b010000000000000110000101111100 4
b0 5
b1111 7
b00000100000001000000010000000100 8
b1 :
#331
b0 :
#332
b0 +
b010000000000000011110011001011 4
b1 5
b0001 7
b00000000000000000000000000000000 8
b1 :
#333
b0 :
#334
b1 +
b010000000000000110000101111100 4
b0 5
b1111 7
b00000100000001000000010000000100 8
b1 :
#335
b0 :
#336
b0 +
b010000000000000011110011001011 4
b1 5
b0001 7
b00000000000000000000000000000000 8
b1 :
#337
b0 :
#338
b1 +
b010000000000000110000101111100 4
b0 5
b1111 7
b00000100000001000000010000000100 8
b1 :
#339
b0 :
#340
b0 +
b010000000000000011110011001011 4
b1 5
b0001 7
b00000000000000000000000000000000 8
b1 :
#341
b0 :
#342
b1 +
b010000000000000110000101111100 4
b0 5
b1111 7
b00000100000001000000010000000100 8
b1 :
#343
b0 :
#344
b0 +
b010000000000000011110011001011 4
b1 5
b0001 7
b00000000000000000000000000000000 8
b1 :
#345
b0 :
#346
b1 +
b010000000000000110000101111100 4
b0 5
b1111 7
b00000100000001000000010000000100 8
b1 :
#347
b0 :
#348
b0 +
b010000000000000011110011001011 4
b1 5
b0001 7
b00000000000000000000000000000000 8
b1 :
#349
b0 :
#350
b1 +
b010000000000000110000101111100 4
b0 5
b1111 7
b00000100000001000000010000000100 8
b1 :
#351
b0 :
#352
b0 +
b010000000000000011110011001011 4
b1 5
b0001 7
b00000000000000000000000000000000 8
b1 :
#353
b0 :
#354
b1 +
b010000000000000110000101111100 4
b0 5
b1111 7
b00000100000001000000010000000100 8
b1 :
#355
b0 :
#356
b0 +
b010000000000000011110011001011 4
b1 5
b0001 7
b00000000000000000000000000000000 8
b1 :
#357
b0 :
#358
b1 +
b010000000000000110000101111100 4
b0 5
b1111 7
b00000100000001000000010000000100 8
b1 :
#359
b0 :
#360
b0 +
b010000000000000011110011001011 4
b1 5
b0001 7
b00000000000000000000000000000000 8
b1 :
#361
b0 :
#362
b1 +
b010000000000000110000101111100 4
b0 5
b1111 7
b00000100000001000000010000000100 8
b1 :
#363
b0 :
#364
b0 +
b010000000000000011110011001011 4
b1 5
b0001 7
b00000000000000000000000000000000 8
b1 :
#365
b0 :
#366
b1 +
b010000000000000110000101111100 4
b0 5
b1111 7
b00000100000001000000010000000100 8
b1 :
#367
b0 :
#368
b0 +
b010000000000000011110011001011 4
b1 5
b0001 7
b00000000000000000000000000000000 8
b1 :
#369
b0 :
#370
b1 +
b010000000000000110000101111100 4
b0 5
b1111 7
b00000100000001000000010000000100 8
b1 :
#371
b0 :
#372
b0 +
b010000000000000011110011001011 4
b1 5
b0001 7
b00000000000000000000000000000000 8
b1 :
#373
b0 :
#374
b1 +
b010000000000000110000101111100 4
b0 5
b1111 7
b00000100000001000000010000000100 8
b1 :
#375
b0 :
#376
b0 +
b010000000000000011110011001011 4
b1 5
b0001 7
b00000000000000000000000000000000 8
b1 :
#377
b0 :
#378
b1 +
b010000000000000110000101111100 4
b0 5
b1111 7
b00000100000001000000010000000100 8
b1 :
#379
b0 :
#380
b0 +
b010000000000000011110011001011 4
b1 5
b0001 7
b00000000000000000000000000000000 8
b1 :
#381
b0 :
#382
b1 +
b010000000000000110000101111100 4
b0 5
b1111 7
b00000100000001000000010000000100 8
b1 :
#383
b0 :
#384
b0 +
b010000000000000011110011001011 4
b1 5
b0001 7
b00000000000000000000000000000000 8
b1 :
#385
b0 :
#386
b1 +
b010000000000000110000101111100 4
b0 5
b1111 7
b00000100000001000000010000000100 8
b1 :
#387
b0 :
#388
b0 +
b010000000000000011110011001011 4
b1 5
b0001 7
b00000000000000000000000000000000 8
b1 :
#389
b0 :
#390
b1 +
b010000000000000110000101111100 4
b0 5
b1111 7
b00000100000001000000010000000100 8
b1 :
#391
b0 :
#392
b0 +
b010000000000000011110011001011 4
b1 5
b0001 7
b00000000000000000000000000000000 8
b1 :
#393
b0 :
#394
b1 +
b010000000000000110000101111100 4
b0 5
b1111 7
b00000100000001000000010000000100 8
b1 :
#395
b0 :
#396
b0 +
b010000000000000011110011001011 4
b1 5
b0001 7
b00000000000000000000000000000000 8
b1 :
#397
b0 :
#398
b1 +
b010000000000000110000101111100 4
b0 5
b1111 7
b00000100000001000000010000000100 8
b1 :
#399
b0 :
#400
b0 +
b010000000000000011110011001011 4
b1 5
b0001 7
b00000000000000000000000000000000 8
b1 :
#401
b0 :
#402
b1 +
b010000000000000110000101111100 4
b0 5
b1111 7
b00000100000001000000010000000100 8
b1 :
#403
b0 :
#404
b0 +
b010000000000000011110011001011 4
b1 5
b0001 7
b00000000000000000000000000000000 8
b1 :
#405
b0 :
#406
b1 +
b010000000000000110000101111100 4
b0 5
b1111 7
b00000100000001000000010000000100 8
b1 :
#407
b0 :
#408
b0 +
b010000000000000011110011001011 4
b1 5
b0001 7
b00000000000000000000000000000000 8
b1 :
#409
b0 :
#410
b1 +
b010000000000000110000101111100 4
b0 5
b1111 7
b00000100000001000000010000000100 8
b1 :
#411
b0 :
#412
b0 +
b010000000000000011110011001011 4
b1 5
b0001 7
b00000000000000000000000000000000 8
b1 :
#413
b0 :
#414
b1 +
b010000000000000110000101111100 4
b0 5
b1111 7
b00000100000001000000010000000100 8
b1 :
#415
b0 :
#416
b0 +
b010000000000000011110011001011 4
b1 5
b0001 7
b00000000000000000000000000000000 8
b1 :
#417
b0 :
#418
b1 +
b010000000000000110000101111100 4
b0 5
b1111 7
b00000100000001000000010000000100 8
b1 :
#419
b0 :
#420
b0 +
b010000000000000011110011001011 4
b1 5
b0001 7
b00000000000000000000000000000000 8
b1 :
#421
b0 :
#422
b1 +
b010000000000000110000101111100 4
b0 5
b1111 7
b00000100000001000000010000000100 8
b1 :
#423
b0 :
#424
b0 +
b010000000000000011110011001011 4
b1 5
b0001 7
b00000000000000000000000000000000 8
b1 :
#425
b0 :
#426
b1 +
b010000000000000110000101111100 4
b0 5
b1111 7
b00000100000001000000010000000100 8
b1 :
#427
b0 :
#428
b0 +
b010000000000000011110011001011 4
b1 5
b0001 7
b00000000000000000000000000000000 8
b1 :
#429
b0 :
#430
b1 +
b010000000000000110000101111100 4
b0 5
b1111 7
b00000100000001000000010000000100 8
b1 :
#431
b0 :
#432
b0 +
b010000000000000011110011001011 4
b1 5
b0001 7
b00000000000000000000000000000000 8
b1 :
#433
b0 :
#434
b1 +
b010000000000000110000101111100 4
b0 5
b1111 7
b00000100000001000000010000000100 8
b1 :
#435
b0 :
#436
b0 +
b010000000000000011110011001011 4
b1 5
b0001 7
b00000000000000000000000000000000 8
b1 :
#437
b0 :
#438
b1 +
b010000000000000110000101111100 4
b0 5
b1111 7
b00000100000001000000010000000100 8
b1 :
#439
b0 :
#440
b0 +
b010000000000000011110011001011 4
b1 5
b0001 7
b00000000000000000000000000000000 8
b1 :
#441
b0 :
#442
b1 +
b010000000000000110000101111100 4
b0 5
b1111 7
b00000100000001000000010000000100 8
b1 :
#443
b0 :
#444
b0 +
b010000000000000011110011001011 4
b1 5
b0001 7
b00000000000000000000000000000000 8
b1 :
#445
b0 :
#446
b1 +
b010000000000000110000101111100 4
b0 5
b1111 7
b00000100000001000000010000000100 8
b1 :
#447
b0 :
#448
b0 +
b010000000000000011110011001011 4
b1 5
b0001 7
b00000000000000000000000000000000 8
b1 :
#449
b0 :
#450
b1 +
b010000000000000110000101111100 4
b0 5
b1111 7
b00000100000001000000010000000100 8
b1 :
#451
b0 :
#452
b0 +
b010000000000000011110011001011 4
b1 5
b0001 7
b00000000000000000000000000000000 8
b1 :
#453
b0 :
