dump.vcd
$date
	2023-05-17 21:15
$end
$timescale 5000ps $end
$scope dumped_signals $end
$var wire 1 ! basesoc_ibus_stb $end
$var wire 1 " oe $end
$var wire 1 # lat $end
$var wire 1 $ sclk $end
$var wire 1 % r0 $end
$var wire 1 & r1 $end
$var wire 1 ' g0 $end
$var wire 1 ( g1 $end
$var wire 1 ) b0 $end
$var wire 1 * b1 $end
$var wire 1 + ethphy_sink_valid $end
$var wire 1 , ethphy_sink_ready $end
$var wire 1 - ethphy_sink_first $end
$var wire 1 . ethphy_sink_last $end
$var wire 8 / ethphy_sink_payload_data $end
$var wire 1 0 ethphy_sink_payload_last_be $end
$var wire 1 1 ethphy_sink_payload_error $end
$var wire 1 2 ethphy_source_valid $end
$var wire 1 3 ethphy_source_ready $end
$var wire 1 4 ethphy_source_first $end
$var wire 1 5 ethphy_source_last $end
$var wire 8 6 ethphy_source_payload_data $end
$var wire 1 7 ethphy_source_payload_last_be $end
$var wire 1 8 ethphy_source_payload_error $end
$var wire 1 9 scope_clk $end
$var wire 1 : scope_trig $end
$unscope  $end
$enddefinitions  $end
$dumpvars
bx !
bx "
bx #
bx $
bx %
bx &
bx '
bx (
bx )
bx *
bx +
bx ,
bx -
bx .
bxxxxxxxx /
bx 0
bx 1
bx 2
bx 3
bx 4
bx 5
bxxxxxxxx 6
bx 7
bx 8
bx 9
bx :
$end
#0
b0 !
b1 "
b0 #
b1 $
b0 %
b0 &
b0 '
b0 (
b0 )
b0 *
b0 +
b1 ,
b0 -
b0 .
b00000000 /
b0 0
b0 1
b0 2
b1 3
b0 4
b0 5
b00000000 6
b0 7
b0 8
b1 9
b0 :
#1
b0 9
#2
b1 9
#3
b0 9
#4
b1 9
#5
b0 9
#6
b1 9
#7
b0 9
#8
b1 9
#9
b0 9
#10
b0 "
b1 9
#11
b0 9
#12
b1 9
#13
b0 9
#14
b1 9
#15
b0 9
#16
b1 9
#17
b0 9
#18
b1 9
#19
b0 9
#20
b1 9
#21
b0 9
#22
b0 $
b1 9
#23
b0 9
#24
b1 9
#25
b0 9
#26
b1 9
#27
b0 9
#28
b1 9
#29
b0 9
#30
b1 9
#31
b0 9
#32
b1 9
b1 :
#33
b0 9
#34
b1 "
b1 $
b1 &
b1 (
b1 9
#35
b0 9
#36
b1 9
#37
b0 9
#38
b1 9
#39
b0 9
#40
b1 9
#41
b0 9
#42
b1 9
#43
b0 9
#44
b1 9
#45
b0 9
#46
b1 #
b0 $
b1 9
#47
b0 9
#48
b1 9
#49
b0 9
#50
b1 9
#51
b0 9
#52
b1 9
#53
b0 9
#54
b1 9
#55
b0 9
#56
b1 9
#57
b0 9
#58
b1 $
b0 (
b1 9
#59
b0 9
#60
b1 !
b1 9
#61
b0 9
#62
b1 9
#63
b0 9
#64
b1 9
#65
b0 9
#66
b1 9
#67
b0 9
#68
b1 9
#69
b0 9
#70
b0 #
b0 $
b1 9
#71
b0 9
#72
b1 9
#73
b0 9
#74
b1 9
#75
b0 9
#76
b1 9
#77
b0 9
#78
b1 9
#79
b0 9
#80
b1 9
#81
b0 9
#82
b0 "
b1 9
#83
b0 9
#84
b1 9
#85
b0 9
#86
b1 9
#87
b0 9
#88
b1 9
#89
b0 9
#90
b1 9
#91
b0 9
#92
b1 9
#93
b0 9
#94
b0 !
b1 $
b0 &
b1 9
#95
b0 9
#96
b1 9
#97
b0 9
#98
b1 9
#99
b0 9
#100
b1 9
#101
b0 9
#102
b1 !
b1 9
#103
b0 9
#104
b1 9
#105
b0 9
#106
b1 "
b0 $
b1 9
#107
b0 9
#108
b1 9
#109
b0 9
#110
b1 9
#111
b0 9
#112
b1 9
#113
b0 9
#114
b1 9
#115
b0 9
#116
b1 9
#117
b0 9
#118
b1 #
b1 $
b1 (
b1 9
#119
b0 9
#120
b1 9
#121
b0 9
#122
b1 9
#123
b0 9
#124
b1 9
#125
b0 9
#126
b1 9
#127
b0 9
#128
b1 9
#129
b0 9
#130
b0 $
b1 9
#131
b0 9
#132
b1 9
#133
b0 9
#134
b1 9
#135
b0 9
#136
b1 9
#137
b0 9
#138
b1 9
#139
b0 9
#140
b1 9
#141
b0 9
#142
b0 #
b1 $
b0 (
b1 9
#143
b0 9
#144
b1 9
#145
b0 9
#146
b1 9
#147
b0 9
#148
b1 9
#149
b0 9
#150
b1 9
#151
b0 9
#152
b1 9
#153
b0 9
#154
b0 "
b1 9
#155
b0 9
#156
b1 9
#157
b0 9
#158
b1 9
#159
b0 9
#160
b1 9
#161
b0 9
#162
b1 9
#163
b0 9
#164
b1 9
#165
b0 9
#166
b0 $
b1 9
#167
b0 9
#168
b1 9
#169
b0 9
#170
b1 9
#171
b0 9
#172
b1 9
#173
b0 9
#174
b1 9
#175
b0 9
#176
b1 9
#177
b0 9
#178
b1 "
b1 $
b1 &
b1 (
b1 9
#179
b0 9
#180
b1 9
#181
b0 9
#182
b1 9
#183
b0 9
#184
b1 9
#185
b0 9
#186
b1 9
#187
b0 9
#188
b1 9
#189
b0 9
#190
b1 #
b0 $
b1 9
#191
b0 9
#192
b1 9
#193
b0 9
#194
b1 9
#195
b0 9
#196
b1 9
#197
b0 9
#198
b1 9
#199
b0 9
#200
b1 9
#201
b0 9
#202
b0 !
b1 $
b0 (
b1 9
#203
b0 9
#204
b1 9
#205
b0 9
#206
b1 9
#207
b0 9
#208
b1 9
#209
b0 9
#210
b1 9
#211
b0 9
#212
b1 9
#213
b0 9
#214
b0 #
b0 $
b1 9
#215
b0 9
#216
b1 9
#217
b0 9
#218
b1 9
#219
b0 9
#220
b1 9
#221
b0 9
#222
b1 9
#223
b0 9
#224
b1 9
#225
b0 9
#226
b0 "
b1 9
#227
b0 9
#228
b1 9
#229
b0 9
#230
b1 9
#231
b0 9
#232
b1 9
#233
b0 9
#234
b1 9
#235
b0 9
#236
b1 9
#237
b0 9
#238
b1 $
b0 &
b1 9
#239
b0 9
#240
b1 9
#241
b0 9
#242
b1 9
#243
b0 9
#244
b1 9
#245
b0 9
#246
b1 9
#247
b0 9
#248
b1 9
#249
b0 9
#250
b1 "
b0 $
b1 9
#251
b0 9
#252
b1 9
#253
b0 9
#254
b1 9
#255
b0 9
#256
b1 9
#257
b0 9
#258
b1 9
#259
b0 9
#260
b1 9
#261
b0 9
#262
b1 #
b1 $
b1 (
b1 9
#263
b0 9
#264
b1 9
#265
b0 9
#266
b1 9
#267
b0 9
#268
b1 9
#269
b0 9
#270
b1 9
#271
b0 9
#272
b1 9
#273
b0 9
#274
b0 $
b1 9
#275
b0 9
#276
b1 9
#277
b0 9
#278
b1 9
#279
b0 9
#280
b1 9
#281
b0 9
#282
b1 9
#283
b0 9
#284
b1 9
#285
b0 9
#286
b0 #
b1 $
b0 (
b1 9
#287
b0 9
#288
b1 9
#289
b0 9
#290
b1 9
#291
b0 9
#292
b1 9
#293
b0 9
#294
b1 9
#295
b0 9
#296
b1 9
#297
b0 9
#298
b1 !
b0 "
b1 9
#299
b0 9
#300
b1 9
#301
b0 9
#302
b1 9
#303
b0 9
#304
b1 9
#305
b0 9
#306
b1 9
#307
b0 9
#308
b1 9
#309
b0 9
#310
b0 $
b1 9
#311
b0 9
#312
b1 9
#313
b0 9
#314
b1 9
#315
b0 9
#316
b1 9
#317
b0 9
#318
b1 9
#319
b0 9
#320
b1 9
#321
b0 9
#322
b1 "
b1 $
b1 &
b1 (
b1 9
#323
b0 9
#324
b1 9
#325
b0 9
#326
b1 9
#327
b0 9
#328
b1 9
#329
b0 9
#330
b1 9
#331
b0 9
#332
b0 !
b1 9
#333
b0 9
#334
b1 #
b0 $
b1 9
#335
b0 9
#336
b1 9
#337
b0 9
#338
b1 9
#339
b0 9
#340
b1 9
#341
b0 9
#342
b1 9
#343
b0 9
#344
b1 9
#345
b0 9
#346
b1 !
b1 $
b0 (
b1 9
#347
b0 9
#348
b1 9
#349
b0 9
#350
b1 9
#351
b0 9
#352
b1 9
#353
b0 9
#354
b1 9
#355
b0 9
#356
b1 9
#357
b0 9
#358
b0 #
b0 $
b1 9
#359
b0 9
#360
b1 9
#361
b0 9
#362
b1 9
#363
b0 9
#364
b1 9
#365
b0 9
#366
b1 9
#367
b0 9
#368
b1 9
#369
b0 9
#370
b0 "
b1 9
#371
b0 9
#372
b1 9
#373
b0 9
#374
b1 9
#375
b0 9
#376
b1 9
#377
b0 9
#378
b0 !
b1 9
#379
b0 9
#380
b1 9
#381
b0 9
#382
b1 $
b0 &
b1 9
#383
b0 9
#384
b1 9
#385
b0 9
#386
b1 9
#387
b0 9
#388
b1 9
#389
b0 9
#390
b1 9
#391
b0 9
#392
b1 9
#393
b0 9
#394
b1 "
b0 $
b1 9
#395
b0 9
#396
b1 9
#397
b0 9
#398
b1 9
#399
b0 9
#400
b1 9
#401
b0 9
#402
b1 9
#403
b0 9
#404
b1 9
#405
b0 9
#406
b1 #
b1 $
b1 (
b1 9
#407
b0 9
#408
b1 9
#409
b0 9
#410
b1 9
#411
b0 9
#412
b1 9
#413
b0 9
#414
b1 9
#415
b0 9
#416
b1 9
#417
b0 9
#418
b0 $
b1 9
#419
b0 9
#420
b1 !
b1 9
#421
b0 9
#422
b1 9
#423
b0 9
#424
b1 9
#425
b0 9
#426
b1 9
#427
b0 9
#428
b1 9
#429
b0 9
#430
b0 #
b1 $
b0 (
b1 9
#431
b0 9
#432
b1 9
#433
b0 9
#434
b1 9
#435
b0 9
#436
b1 9
#437
b0 9
#438
b1 9
#439
b0 9
#440
b1 9
#441
b0 9
#442
b0 "
b1 9
#443
b0 9
#444
b1 9
#445
b0 9
#446
b1 9
#447
b0 9
#448
b1 9
#449
b0 9
#450
b1 9
#451
b0 9
#452
b1 9
#453
b0 9
#454
b0 !
b0 $
b1 9
#455
b0 9
#456
b1 9
#457
b0 9
#458
b1 9
#459
b0 9
#460
b1 9
#461
b0 9
#462
b1 9
#463
b0 9
#464
b1 9
#465
b0 9
#466
b1 "
b1 $
b1 &
b1 (
b1 9
#467
b0 9
#468
b1 9
#469
b0 9
#470
b1 9
#471
b0 9
#472
b1 9
#473
b0 9
#474
b1 9
#475
b0 9
#476
b1 9
#477
b0 9
#478
b1 #
b0 $
b1 9
#479
b0 9
#480
b1 !
b1 9
#481
b0 9
#482
b1 9
#483
b0 9
#484
b1 9
#485
b0 9
#486
b1 9
#487
b0 9
#488
b1 9
#489
b0 9
#490
b1 $
b0 (
b1 9
#491
b0 9
#492
b1 9
#493
b0 9
#494
b1 9
#495
b0 9
#496
b1 9
#497
b0 9
#498
b1 9
#499
b0 9
#500
b1 9
#501
b0 9
#502
b0 #
b0 $
b1 9
#503
b0 9
#504
b1 9
#505
b0 9
#506
b1 9
#507
b0 9
#508
b1 9
#509
b0 9
#510
b1 9
#511
b0 9
#512
b1 9
#513
b0 9
#514
b0 "
b1 9
#515
b0 9
#516
b1 9
#517
b0 9
#518
b1 9
#519
b0 9
#520
b1 9
#521
b0 9
#522
b1 9
#523
b0 9
#524
b1 9
#525
b0 9
#526
b1 $
b0 &
b1 9
#527
b0 9
#528
b1 9
#529
b0 9
#530
b1 9
#531
b0 9
#532
b1 9
#533
b0 9
#534
b1 9
#535
b0 9
#536
b1 9
#537
b0 9
#538
b1 "
b0 $
b1 9
#539
b0 9
#540
b1 9
#541
b0 9
#542
b1 9
#543
b0 9
#544
b1 9
#545
b0 9
#546
b0 !
b1 9
#547
b0 9
#548
b1 9
#549
b0 9
#550
b1 #
b1 $
b1 (
b1 9
#551
b0 9
#552
b1 9
#553
b0 9
#554
b1 9
#555
b0 9
#556
b1 9
#557
b0 9
#558
b1 9
#559
b0 9
#560
b1 9
#561
b0 9
#562
b0 $
b1 9
#563
b0 9
#564
b1 9
#565
b0 9
#566
b1 9
#567
b0 9
#568
b1 9
#569
b0 9
#570
b1 9
#571
b0 9
#572
b1 9
#573
b0 9
#574
b0 #
b1 $
b0 (
b1 9
#575
b0 9
#576
b1 9
#577
b0 9
#578
b1 9
#579
b0 9
#580
b1 9
#581
b0 9
#582
b1 9
#583
b0 9
#584
b1 9
#585
b0 9
#586
b0 "
b1 9
#587
b0 9
#588
b1 9
#589
b0 9
#590
b1 9
#591
b0 9
#592
b1 9
#593
b0 9
#594
b1 9
#595
b0 9
#596
b1 9
#597
b0 9
#598
b0 $
b1 9
#599
b0 9
#600
b1 9
#601
b0 9
#602
b1 9
#603
b0 9
#604
b1 9
#605
b0 9
#606
b1 9
#607
b0 9
#608
b1 9
#609
b0 9
#610
b1 "
b1 $
b1 &
b1 (
b1 9
#611
b0 9
#612
b1 9
#613
b0 9
#614
b1 9
#615
b0 9
#616
b1 9
#617
b0 9
#618
b1 9
#619
b0 9
#620
b1 9
#621
b0 9
#622
b1 #
b0 $
b1 9
#623
b0 9
#624
b1 9
#625
b0 9
#626
b1 9
#627
b0 9
#628
b1 9
#629
b0 9
#630
b1 9
#631
b0 9
#632
b1 9
#633
b0 9
#634
b1 $
b0 (
b1 9
#635
b0 9
#636
b1 9
#637
b0 9
#638
b1 9
#639
b0 9
#640
b1 9
#641
b0 9
#642
b1 9
#643
b0 9
#644
b1 9
#645
b0 9
#646
b0 #
b0 $
b1 9
#647
b0 9
#648
b1 9
#649
b0 9
#650
b1 9
#651
b0 9
#652
b1 9
#653
b0 9
#654
b1 9
#655
b0 9
#656
b1 9
#657
b0 9
#658
b0 "
b1 9
#659
b0 9
#660
b1 9
#661
b0 9
#662
b1 9
#663
b0 9
#664
b1 9
#665
b0 9
#666
b1 9
#667
b0 9
#668
b1 9
#669
b0 9
#670
b1 $
b0 &
b1 9
#671
b0 9
#672
b1 9
#673
b0 9
#674
b1 9
#675
b0 9
#676
b1 9
#677
b0 9
#678
b1 9
#679
b0 9
#680
b1 9
#681
b0 9
#682
b1 "
b0 $
b1 9
#683
b0 9
#684
b1 9
#685
b0 9
#686
b1 9
#687
b0 9
#688
b1 9
#689
b0 9
#690
b1 9
#691
b0 9
#692
b1 9
#693
b0 9
#694
b1 #
b1 $
b1 (
b1 9
#695
b0 9
#696
b1 9
#697
b0 9
#698
b1 9
#699
b0 9
#700
b1 9
#701
b0 9
#702
b1 9
#703
b0 9
#704
b1 9
#705
b0 9
#706
b0 $
b1 9
#707
b0 9
#708
b1 9
#709
b0 9
#710
b1 9
#711
b0 9
#712
b1 9
#713
b0 9
#714
b1 9
#715
b0 9
#716
b1 9
#717
b0 9
#718
b0 #
b1 $
b0 (
b1 9
#719
b0 9
#720
b1 9
#721
b0 9
#722
b1 9
#723
b0 9
#724
b1 9
#725
b0 9
#726
b1 9
#727
b0 9
#728
b1 9
#729
b0 9
#730
b0 "
b1 9
#731
b0 9
#732
b1 9
#733
b0 9
#734
b1 9
#735
b0 9
#736
b1 9
#737
b0 9
#738
b1 9
#739
b0 9
#740
b1 9
#741
b0 9
#742
b0 $
b1 9
#743
b0 9
#744
b1 9
#745
b0 9
#746
b1 9
#747
b0 9
#748
b1 9
#749
b0 9
#750
b1 9
#751
b0 9
#752
b1 9
#753
b0 9
#754
b1 "
b1 $
b1 &
b1 (
b1 9
#755
b0 9
#756
b1 9
#757
b0 9
#758
b1 9
#759
b0 9
#760
b1 9
#761
b0 9
#762
b1 9
#763
b0 9
#764
b1 9
#765
b0 9
#766
b1 #
b0 $
b1 9
#767
b0 9
#768
b1 9
#769
b0 9
#770
b1 9
#771
b0 9
#772
b1 9
#773
b0 9
#774
b1 9
#775
b0 9
#776
b1 9
#777
b0 9
#778
b1 $
b0 (
b1 9
#779
b0 9
#780
b1 9
#781
b0 9
#782
b1 9
#783
b0 9
#784
b1 9
#785
b0 9
#786
b1 9
#787
b0 9
#788
b1 9
#789
b0 9
#790
b0 #
b0 $
b1 9
#791
b0 9
#792
b1 9
#793
b0 9
#794
b1 9
#795
b0 9
#796
b1 9
#797
b0 9
#798
b1 9
#799
b0 9
#800
b1 9
#801
b0 9
#802
b0 "
b1 9
#803
b0 9
#804
b1 9
#805
b0 9
#806
b1 9
#807
b0 9
#808
b1 9
#809
b0 9
#810
b1 9
#811
b0 9
#812
b1 9
#813
b0 9
#814
b1 $
b0 &
b1 9
#815
b0 9
#816
b1 9
#817
b0 9
#818
b1 9
#819
b0 9
#820
b1 9
#821
b0 9
#822
b1 9
#823
b0 9
#824
b1 9
#825
b0 9
#826
b1 "
b0 $
b1 9
#827
b0 9
#828
b1 9
#829
b0 9
#830
b1 9
#831
b0 9
#832
b1 9
#833
b0 9
#834
b1 9
#835
b0 9
#836
b1 9
#837
b0 9
#838
b1 #
b1 $
b1 (
b1 9
#839
b0 9
#840
b1 9
#841
b0 9
#842
b1 9
#843
b0 9
#844
b1 9
#845
b0 9
#846
b1 9
#847
b0 9
#848
b1 9
#849
b0 9
#850
b0 $
b1 9
#851
b0 9
#852
b1 9
#853
b0 9
#854
b1 9
#855
b0 9
#856
b1 9
#857
b0 9
#858
b1 9
#859
b0 9
#860
b1 9
#861
b0 9
#862
b0 #
b1 $
b0 (
b1 9
#863
b0 9
#864
b1 9
#865
b0 9
#866
b1 9
#867
b0 9
#868
b1 9
#869
b0 9
#870
b1 9
#871
b0 9
#872
b1 9
#873
b0 9
#874
b0 "
b1 9
#875
b0 9
#876
b1 9
#877
b0 9
#878
b1 9
#879
b0 9
#880
b1 9
#881
b0 9
#882
b1 9
#883
b0 9
#884
b1 9
#885
b0 9
#886
b0 $
b1 9
#887
b0 9
#888
b1 9
#889
b0 9
#890
b1 9
#891
b0 9
#892
b1 9
#893
b0 9
#894
b1 9
#895
b0 9
#896
b1 9
#897
b0 9
#898
b1 "
b1 $
b1 &
b1 (
b1 9
#899
b0 9
#900
b1 9
#901
b0 9
#902
b1 9
#903
b0 9
#904
b1 9
#905
b0 9
#906
b1 9
#907
b0 9
#908
b1 9
#909
b0 9
#910
b1 #
b0 $
b1 9
#911
b0 9
#912
b1 9
#913
b0 9
#914
b1 9
#915
b0 9
#916
b1 9
#917
b0 9
#918
b1 9
#919
b0 9
#920
b1 9
#921
b0 9
#922
b1 $
b0 (
b1 9
#923
b0 9
#924
b1 9
#925
b0 9
#926
b1 9
#927
b0 9
#928
b1 9
#929
b0 9
#930
b1 9
#931
b0 9
#932
b1 9
#933
b0 9
#934
b0 #
b0 $
b1 9
#935
b0 9
#936
b1 9
#937
b0 9
#938
b1 9
#939
b0 9
#940
b1 9
#941
b0 9
#942
b1 9
#943
b0 9
#944
b1 9
#945
b0 9
#946
b0 "
b1 9
#947
b0 9
#948
b1 9
#949
b0 9
#950
b1 9
#951
b0 9
#952
b1 9
#953
b0 9
#954
b1 9
#955
b0 9
#956
b1 9
#957
b0 9
#958
b1 $
b0 &
b1 9
#959
b0 9
#960
b1 9
#961
b0 9
#962
b1 9
#963
b0 9
#964
b1 9
#965
b0 9
#966
b1 9
#967
b0 9
#968
b1 9
#969
b0 9
#970
b1 "
b0 $
b1 9
#971
b0 9
#972
b1 9
#973
b0 9
#974
b1 9
#975
b0 9
#976
b1 9
#977
b0 9
#978
b1 9
#979
b0 9
#980
b1 9
#981
b0 9
#982
b1 #
b1 $
b1 (
b1 9
#983
b0 9
#984
b1 9
#985
b0 9
#986
b1 9
#987
b0 9
#988
b1 9
#989
b0 9
#990
b1 9
#991
b0 9
#992
b1 9
#993
b0 9
#994
b0 $
b1 9
#995
b0 9
#996
b1 9
#997
b0 9
#998
b1 9
#999
b0 9
#1000
b1 9
#1001
b0 9
#1002
b1 9
#1003
b0 9
#1004
b1 9
#1005
b0 9
#1006
b0 #
b1 $
b0 (
b1 9
#1007
b0 9
#1008
b1 9
#1009
b0 9
#1010
b1 9
#1011
b0 9
#1012
b1 9
#1013
b0 9
#1014
b1 9
#1015
b0 9
#1016
b1 9
#1017
b0 9
#1018
b0 "
b1 9
#1019
b0 9
#1020
b1 9
#1021
b0 9
#1022
b1 9
#1023
b0 9
#1024
b1 9
#1025
b0 9
#1026
b1 9
#1027
b0 9
#1028
b1 9
#1029
b0 9
#1030
b0 $
b1 9
#1031
b0 9
#1032
b1 9
#1033
b0 9
#1034
b1 9
#1035
b0 9
#1036
b1 9
#1037
b0 9
#1038
b1 9
#1039
b0 9
#1040
b1 9
#1041
b0 9
#1042
b1 "
b1 $
b1 &
b1 (
b1 9
#1043
b0 9
#1044
b1 9
#1045
b0 9
#1046
b1 9
#1047
b0 9
#1048
b1 9
#1049
b0 9
#1050
b1 9
#1051
b0 9
#1052
b1 9
#1053
b0 9
#1054
b1 #
b0 $
b1 9
#1055
b0 9
#1056
b1 9
#1057
b0 9
#1058
b1 9
#1059
b0 9
#1060
b1 9
#1061
b0 9
#1062
b1 9
#1063
b0 9
#1064
b1 9
#1065
b0 9
#1066
b1 $
b0 (
b1 9
#1067
b0 9
#1068
b1 9
#1069
b0 9
#1070
b1 9
#1071
b0 9
#1072
b1 9
#1073
b0 9
#1074
b1 9
#1075
b0 9
#1076
b1 9
#1077
b0 9
#1078
b0 #
b0 $
b1 9
#1079
b0 9
#1080
b1 9
#1081
b0 9
#1082
b1 9
#1083
b0 9
#1084
b1 9
#1085
b0 9
#1086
b1 9
#1087
b0 9
#1088
b1 9
#1089
b0 9
#1090
b0 "
b1 9
#1091
b0 9
#1092
b1 9
#1093
b0 9
#1094
b1 9
#1095
b0 9
#1096
b1 9
#1097
b0 9
#1098
b1 9
#1099
b0 9
#1100
b1 9
#1101
b0 9
#1102
b1 $
b0 &
b1 9
#1103
b0 9
#1104
b1 9
#1105
b0 9
#1106
b1 !
b1 9
#1107
b0 9
#1108
b1 9
#1109
b0 9
#1110
b1 9
#1111
b0 9
#1112
b1 9
#1113
b0 9
#1114
b1 "
b0 $
b1 9
#1115
b0 9
#1116
b1 9
#1117
b0 9
#1118
b1 9
#1119
b0 9
#1120
b1 9
#1121
b0 9
#1122
b1 9
#1123
b0 9
#1124
b1 9
#1125
b0 9
#1126
b1 #
b1 $
b1 (
b1 9
#1127
b0 9
#1128
b1 9
#1129
b0 9
#1130
b1 9
#1131
b0 9
#1132
b1 9
#1133
b0 9
#1134
b1 9
#1135
b0 9
#1136
b1 9
#1137
b0 9
#1138
b0 $
b1 9
#1139
b0 9
#1140
b0 !
b1 9
#1141
b0 9
#1142
b1 9
#1143
b0 9
#1144
b1 9
#1145
b0 9
#1146
b1 9
#1147
b0 9
#1148
b1 9
#1149
b0 9
#1150
b0 #
b1 $
b0 (
b1 9
#1151
b0 9
#1152
b1 9
#1153
b0 9
#1154
b1 9
#1155
b0 9
#1156
b1 9
#1157
b0 9
#1158
b1 9
#1159
b0 9
#1160
b1 9
#1161
b0 9
#1162
b0 "
b1 9
#1163
b0 9
#1164
b1 9
#1165
b0 9
#1166
b1 !
b1 9
#1167
b0 9
#1168
b1 9
#1169
b0 9
#1170
b1 9
#1171
b0 9
#1172
b1 9
#1173
b0 9
#1174
b0 $
b1 9
#1175
b0 9
#1176
b1 9
#1177
b0 9
#1178
b1 9
#1179
b0 9
#1180
b1 9
#1181
b0 9
#1182
b1 9
#1183
b0 9
#1184
b1 9
#1185
b0 9
#1186
b1 "
b1 $
b1 &
b1 (
b1 9
#1187
b0 9
#1188
b1 9
#1189
b0 9
#1190
b1 9
#1191
b0 9
#1192
b1 9
#1193
b0 9
#1194
b1 9
#1195
b0 9
#1196
b1 9
#1197
b0 9
#1198
b1 #
b0 $
b1 9
#1199
b0 9
#1200
b0 !
b1 9
#1201
b0 9
#1202
b1 9
#1203
b0 9
#1204
b1 9
#1205
b0 9
#1206
b1 9
#1207
b0 9
#1208
b1 9
#1209
b0 9
#1210
b1 $
b0 (
b1 9
#1211
b0 9
#1212
b1 9
#1213
b0 9
#1214
b1 9
#1215
b0 9
#1216
b1 9
#1217
b0 9
#1218
b1 9
#1219
b0 9
#1220
b1 9
#1221
b0 9
#1222
b0 #
b0 $
b1 9
#1223
b0 9
#1224
b1 !
b1 9
#1225
b0 9
#1226
b1 9
#1227
b0 9
#1228
b1 9
#1229
b0 9
#1230
b1 9
#1231
b0 9
#1232
b1 9
#1233
b0 9
#1234
b0 "
b1 9
#1235
b0 9
#1236
b1 9
#1237
b0 9
#1238
b1 9
#1239
b0 9
#1240
b1 9
#1241
b0 9
#1242
b1 9
#1243
b0 9
#1244
b1 9
#1245
b0 9
#1246
b1 $
b0 &
b1 9
#1247
b0 9
#1248
b1 9
#1249
b0 9
#1250
b1 9
#1251
b0 9
#1252
b1 9
#1253
b0 9
#1254
b1 9
#1255
b0 9
#1256
b0 !
b1 9
#1257
b0 9
#1258
b1 "
b0 $
b1 9
#1259
b0 9
#1260
b1 9
#1261
b0 9
#1262
b1 9
#1263
b0 9
#1264
b1 9
#1265
b0 9
#1266
b1 9
#1267
b0 9
#1268
b1 9
#1269
b0 9
#1270
b1 #
b1 $
b1 (
b1 9
#1271
b0 9
#1272
b1 9
#1273
b0 9
#1274
b1 9
#1275
b0 9
#1276
b1 9
#1277
b0 9
#1278
b1 9
#1279
b0 9
#1280
b1 !
b1 9
#1281
b0 9
#1282
b0 $
b1 9
#1283
b0 9
#1284
b1 9
#1285
b0 9
#1286
b1 9
#1287
b0 9
#1288
b1 9
#1289
b0 9
#1290
b1 9
#1291
b0 9
#1292
b1 9
#1293
b0 9
#1294
b0 #
b1 $
b0 (
b1 9
#1295
b0 9
#1296
b1 9
#1297
b0 9
#1298
b1 9
#1299
b0 9
#1300
b1 9
#1301
b0 9
#1302
b1 9
#1303
b0 9
#1304
b1 9
#1305
b0 9
#1306
b0 "
b1 9
#1307
b0 9
#1308
b1 9
#1309
b0 9
#1310
b1 9
#1311
b0 9
#1312
b0 !
b1 9
#1313
b0 9
#1314
b1 9
#1315
b0 9
#1316
b1 9
#1317
b0 9
#1318
b0 $
b1 9
#1319
b0 9
#1320
b1 9
#1321
b0 9
#1322
b1 9
#1323
b0 9
#1324
b1 9
#1325
b0 9
#1326
b1 9
#1327
b0 9
#1328
b1 9
#1329
b0 9
#1330
b1 "
b1 $
b1 &
b1 (
b1 9
#1331
b0 9
#1332
b1 9
#1333
b0 9
#1334
b1 !
b1 9
#1335
b0 9
#1336
b1 9
#1337
b0 9
#1338
b1 9
#1339
b0 9
#1340
b1 9
#1341
b0 9
#1342
b1 #
b0 $
b1 9
#1343
b0 9
#1344
b1 9
#1345
b0 9
#1346
b1 9
#1347
b0 9
#1348
b1 9
#1349
b0 9
#1350
b1 9
#1351
b0 9
#1352
b1 9
#1353
b0 9
#1354
b1 $
b0 (
b1 9
#1355
b0 9
#1356
b1 9
#1357
b0 9
#1358
b1 9
#1359
b0 9
#1360
b1 9
#1361
b0 9
#1362
b1 9
#1363
b0 9
#1364
b1 9
#1365
b0 9
#1366
b0 #
b0 $
b1 9
#1367
b0 9
#1368
b1 9
#1369
b0 9
#1370
b1 9
#1371
b0 9
#1372
b0 !
b1 9
#1373
b0 9
#1374
b1 9
#1375
b0 9
#1376
b1 9
#1377
b0 9
#1378
b0 "
b1 9
#1379
b0 9
#1380
b1 9
#1381
b0 9
#1382
b1 9
#1383
b0 9
#1384
b1 9
#1385
b0 9
#1386
b1 9
#1387
b0 9
#1388
b1 9
#1389
b0 9
#1390
b1 $
b0 &
b1 9
#1391
b0 9
#1392
b1 9
#1393
b0 9
#1394
b1 9
#1395
b0 9
#1396
b1 9
#1397
b0 9
#1398
b1 9
#1399
b0 9
#1400
b1 9
#1401
b0 9
#1402
b1 "
b0 $
b1 9
#1403
b0 9
#1404
b1 9
#1405
b0 9
#1406
b1 9
#1407
b0 9
#1408
b1 9
#1409
b0 9
#1410
b1 9
#1411
b0 9
#1412
b1 9
#1413
b0 9
#1414
b1 #
b1 $
b1 (
b1 9
#1415
b0 9
#1416
b1 9
#1417
b0 9
#1418
b1 9
#1419
b0 9
#1420
b1 9
#1421
b0 9
#1422
b1 9
#1423
b0 9
#1424
b1 9
#1425
b0 9
#1426
b0 $
b1 9
#1427
b0 9
#1428
b1 9
#1429
b0 9
#1430
b1 9
#1431
b0 9
#1432
b1 9
#1433
b0 9
#1434
b1 9
#1435
b0 9
#1436
b1 9
#1437
b0 9
#1438
b0 #
b1 $
b0 (
b1 9
#1439
b0 9
#1440
b1 9
#1441
b0 9
#1442
b1 9
#1443
b0 9
#1444
b1 9
#1445
b0 9
#1446
b1 9
#1447
b0 9
#1448
b1 9
#1449
b0 9
#1450
b0 "
b1 9
#1451
b0 9
#1452
b1 9
#1453
b0 9
#1454
b1 9
#1455
b0 9
#1456
b1 9
#1457
b0 9
#1458
b1 9
#1459
b0 9
#1460
b1 9
#1461
b0 9
#1462
b0 $
b1 9
#1463
b0 9
#1464
b1 9
#1465
b0 9
#1466
b1 9
#1467
b0 9
#1468
b1 9
#1469
b0 9
#1470
b1 9
#1471
b0 9
#1472
b1 9
#1473
b0 9
#1474
b1 "
b1 $
b1 &
b1 (
b1 9
#1475
b0 9
#1476
b1 9
#1477
b0 9
#1478
b1 9
#1479
b0 9
#1480
b1 9
#1481
b0 9
#1482
b1 9
#1483
b0 9
#1484
b1 9
#1485
b0 9
#1486
b1 #
b0 $
b1 9
#1487
b0 9
#1488
b1 9
#1489
b0 9
#1490
b1 9
#1491
b0 9
#1492
b1 9
#1493
b0 9
#1494
b1 9
#1495
b0 9
#1496
b1 9
#1497
b0 9
#1498
b1 $
b0 (
b1 9
#1499
b0 9
#1500
b1 9
#1501
b0 9
#1502
b1 9
#1503
b0 9
#1504
b1 9
#1505
b0 9
#1506
b1 9
#1507
b0 9
#1508
b1 9
#1509
b0 9
#1510
b0 #
b0 $
b1 9
#1511
b0 9
#1512
b1 9
#1513
b0 9
#1514
b1 9
#1515
b0 9
#1516
b1 9
#1517
b0 9
#1518
b1 9
#1519
b0 9
#1520
b1 9
#1521
b0 9
#1522
b0 "
b1 9
#1523
b0 9
#1524
b1 9
#1525
b0 9
#1526
b1 9
#1527
b0 9
#1528
b1 9
#1529
b0 9
#1530
b1 9
#1531
b0 9
