dump.vcd
$date
	2023-04-25 22:05
$end
$timescale 5000ps $end
$scope dumped_signals $end
$var wire 1 ! __main___basesoc_ibus_stb $end
$var wire 1 " __main___basesoc_ibus_cyc $end
$var wire 30 # __main___basesoc_ibus_adr $end
$var wire 1 $ __main___basesoc_ibus_we $end
$var wire 1 % __main___basesoc_ibus_ack $end
$var wire 4 & __main___basesoc_ibus_sel $end
$var wire 32 ' __main___basesoc_ibus_dat_w $end
$var wire 32 ( __main___basesoc_ibus_dat_r $end
$var wire 1 ) __main___basesoc_dbus_stb $end
$var wire 1 * __main___basesoc_dbus_cyc $end
$var wire 30 + __main___basesoc_dbus_adr $end
$var wire 1 , __main___basesoc_dbus_we $end
$var wire 1 - __main___basesoc_dbus_ack $end
$var wire 4 . __main___basesoc_dbus_sel $end
$var wire 32 / __main___basesoc_dbus_dat_w $end
$var wire 32 0 __main___basesoc_dbus_dat_r $end
$var wire 1 1 scope_clk $end
$var wire 1 2 scope_trig $end
$unscope  $end
$enddefinitions  $end
$dumpvars
bx !
bx "
bxxxxxxxxxxxxxxxxxxxxxxxxxxxxxx #
bx $
bx %
bxxxx &
bxxxxxxxxxxxxxxxxxxxxxxxxxxxxxxxx '
bxxxxxxxxxxxxxxxxxxxxxxxxxxxxxxxx (
bx )
bx *
bxxxxxxxxxxxxxxxxxxxxxxxxxxxxxx +
bx ,
bx -
bxxxx .
bxxxxxxxxxxxxxxxxxxxxxxxxxxxxxxxx /
bxxxxxxxxxxxxxxxxxxxxxxxxxxxxxxxx 0
bx 1
bx 2
$end
#0
b0 !
b0 "
b000000000000000001000011000000 #
b0 $
b0 %
b1111 &
b00000000000000000000000000000000 '
b00000000000000000000000000000000 (
b0 )
b0 *
b000000000000000001000011000000 +
b1 ,
b0 -
b0001 .
b00000000000000000000000000000000 /
b00000000000000000000000000000000 0
b1 1
b0 2
#1
b0 1
#2
b000100000000000000000000000000 +
b1 1
#3
b0 1
#4
b000100000000000000000001011000 +
b0 ,
b1111 .
b1 1
#5
b0 1
#6
b000000000000000000000000011111 +
b01111000011110000111100001111000 /
b1 1
#7
b0 1
#8
b000000000000000000000000000000 +
b1 ,
b0001 .
b00000000000000000000000000000000 /
b1 1
#9
b0 1
#10
b000000000000000000110010100000 +
b0011 .
b00000000010000000000000001000000 /
b1 1
#11
b0 1
#12
b000000000000000000110010011110 +
b00000000000000000000000000000000 /
b1 1
#13
b0 1
#14
b000000000000000000000000000000 +
b0001 .
b1 1
#15
b0 1
#16
b000100000000000000000000000000 +
b1 1
#17
b0 1
#18
b1 1
#19
b0 1
#20
b000100000000000000000001011010 +
b0 ,
b1111 .
b00010000000000000000000100110000 /
b1 1
#21
b0 1
#22
b000100000000000000000001011001 +
b00000000000000000000000000000000 /
b1 1
#23
b0 1
#24
b111100000000000000000000000000 +
b1 ,
b0001 .
b1 1
#25
b0 1
#26
b111111111111111111111111111111 +
b0100 .
b00000010000000100000001000000010 /
b1 1
#27
b0 1
#28
b000000000000000000000000000000 +
b0001 .
b1 1
#29
b0 1
#30
b00000000000000000000000000000000 /
b1 1
#31
b0 1
#32
b000000000000000001000011000000 +
b1 1
b1 2
#33
b0 1
#34
b000100000000000000000000000000 +
b1 1
#35
b0 1
#36
b000100000000000000000001011000 +
b0 ,
b1111 .
b1 1
#37
b0 1
#38
b000000000000000000000000011111 +
b01111000011110000111100001111000 /
b1 1
#39
b0 1
#40
b000000000000000000000000000000 +
b1 ,
b0001 .
b00000000000000000000000000000000 /
b1 1
#41
b0 1
#42
b000000000000000000110010100000 +
b0011 .
b00000000010000000000000001000000 /
b1 1
#43
b0 1
#44
b000000000000000000110010011110 +
b00000000000000000000000000000000 /
b1 1
#45
b0 1
#46
b000000000000000000000000000000 +
b0001 .
b1 1
#47
b0 1
#48
b000100000000000000000000000000 +
b1 1
#49
b0 1
#50
b1 1
#51
b0 1
#52
b000100000000000000000001011010 +
b0 ,
b1111 .
b00010000000000000000000100110000 /
b1 1
#53
b0 1
#54
b000100000000000000000001011001 +
b00000000000000000000000000000000 /
b1 1
#55
b0 1
#56
b111100000000000000000000000000 +
b1 ,
b0001 .
b1 1
#57
b0 1
#58
b111111111111111111111111111111 +
b0100 .
b00000010000000100000001000000010 /
b1 1
#59
b0 1
#60
b000000000000000000000000000000 +
b0001 .
b1 1
#61
b0 1
#62
b00000000000000000000000000000000 /
b1 1
#63
b0 1
#64
b000000000000000001000011000000 +
b1 1
#65
b0 1
#66
b000100000000000000000000000000 +
b1 1
#67
b0 1
#68
b000100000000000000000001011000 +
b0 ,
b1111 .
b1 1
#69
b0 1
#70
b000000000000000000000000011111 +
b01111000011110000111100001111000 /
b1 1
#71
b0 1
#72
b000000000000000000000000000000 +
b1 ,
b0001 .
b00000000000000000000000000000000 /
b1 1
#73
b0 1
#74
b000000000000000000110010100000 +
b0011 .
b00000000010000000000000001000000 /
b1 1
#75
b0 1
#76
b000000000000000000110010011110 +
b00000000000000000000000000000000 /
b1 1
#77
b0 1
#78
b000000000000000000000000000000 +
b0001 .
b1 1
#79
b0 1
#80
b000100000000000000000000000000 +
b1 1
#81
b0 1
#82
b1 1
#83
b0 1
#84
b000100000000000000000001011010 +
b0 ,
b1111 .
b00010000000000000000000100110000 /
b1 1
#85
b0 1
#86
b000100000000000000000001011001 +
b00000000000000000000000000000000 /
b1 1
#87
b0 1
#88
b111100000000000000000000000000 +
b1 ,
b0001 .
b1 1
#89
b0 1
#90
b111111111111111111111111111111 +
b0100 .
b00000010000000100000001000000010 /
b1 1
#91
b0 1
#92
b000000000000000000000000000000 +
b0001 .
b1 1
#93
b0 1
#94
b00000000000000000000000000000000 /
b1 1
#95
b0 1
#96
b000000000000000001000011000000 +
b1 1
#97
b0 1
#98
b000100000000000000000000000000 +
b1 1
#99
b0 1
#100
b000100000000000000000001011000 +
b0 ,
b1111 .
b1 1
#101
b0 1
#102
b000000000000000000000000011111 +
b01111000011110000111100001111000 /
b1 1
#103
b0 1
#104
b000000000000000000000000000000 +
b1 ,
b0001 .
b00000000000000000000000000000000 /
b1 1
#105
b0 1
#106
b000000000000000000110010100000 +
b0011 .
b00000000010000000000000001000000 /
b1 1
#107
b0 1
#108
b000000000000000000110010011110 +
b00000000000000000000000000000000 /
b1 1
#109
b0 1
#110
b000000000000000000000000000000 +
b0001 .
b1 1
#111
b0 1
#112
b000100000000000000000000000000 +
b1 1
#113
b0 1
#114
b1 1
#115
b0 1
#116
b000100000000000000000001011010 +
b0 ,
b1111 .
b00010000000000000000000100110000 /
b1 1
#117
b0 1
#118
b000100000000000000000001011001 +
b00000000000000000000000000000000 /
b1 1
#119
b0 1
#120
b111100000000000000000000000000 +
b1 ,
b0001 .
b1 1
#121
b0 1
#122
b111111111111111111111111111111 +
b0100 .
b00000010000000100000001000000010 /
b1 1
#123
b0 1
#124
b000000000000000000000000000000 +
b0001 .
b1 1
#125
b0 1
#126
b00000000000000000000000000000000 /
b1 1
#127
b0 1
#128
b000000000000000001000011000000 +
b1 1
#129
b0 1
#130
b000100000000000000000000000000 +
b1 1
#131
b0 1
#132
b000100000000000000000001011000 +
b0 ,
b1111 .
b1 1
#133
b0 1
#134
b000000000000000000000000011111 +
b01111000011110000111100001111000 /
b1 1
#135
b0 1
#136
b000000000000000000000000000000 +
b1 ,
b0001 .
b00000000000000000000000000000000 /
b1 1
#137
b0 1
#138
b000000000000000000110010100000 +
b0011 .
b00000000010000000000000001000000 /
b1 1
#139
b0 1
#140
b000000000000000000110010011110 +
b00000000000000000000000000000000 /
b1 1
#141
b0 1
#142
b000000000000000000000000000000 +
b0001 .
b1 1
#143
b0 1
#144
b000100000000000000000000000000 +
b1 1
#145
b0 1
#146
b1 1
#147
b0 1
#148
b000100000000000000000001011010 +
b0 ,
b1111 .
b00010000000000000000000100110000 /
b1 1
#149
b0 1
#150
b000100000000000000000001011001 +
b00000000000000000000000000000000 /
b1 1
#151
b0 1
#152
b111100000000000000000000000000 +
b1 ,
b0001 .
b1 1
#153
b0 1
#154
b111111111111111111111111111111 +
b0100 .
b00000010000000100000001000000010 /
b1 1
#155
b0 1
#156
b000000000000000000000000000000 +
b0001 .
b1 1
#157
b0 1
#158
b00000000000000000000000000000000 /
b1 1
#159
b0 1
#160
b000000000000000001000011000000 +
b1 1
#161
b0 1
#162
b000100000000000000000000000000 +
b1 1
#163
b0 1
#164
b000100000000000000000001011000 +
b0 ,
b1111 .
b1 1
#165
b0 1
#166
b000000000000000000000000011111 +
b01111000011110000111100001111000 /
b1 1
#167
b0 1
#168
b000000000000000000000000000000 +
b1 ,
b0001 .
b00000000000000000000000000000000 /
b1 1
#169
b0 1
#170
b000000000000000000110010100000 +
b0011 .
b00000000010000000000000001000000 /
b1 1
#171
b0 1
#172
b000000000000000000110010011110 +
b00000000000000000000000000000000 /
b1 1
#173
b0 1
#174
b000000000000000000000000000000 +
b0001 .
b1 1
#175
b0 1
#176
b000100000000000000000000000000 +
b1 1
#177
b0 1
#178
b1 1
#179
b0 1
#180
b000100000000000000000001011010 +
b0 ,
b1111 .
b00010000000000000000000100110000 /
b1 1
#181
b0 1
#182
b000100000000000000000001011001 +
b00000000000000000000000000000000 /
b1 1
#183
b0 1
#184
b111100000000000000000000000000 +
b1 ,
b0001 .
b1 1
#185
b0 1
#186
b111111111111111111111111111111 +
b0100 .
b00000010000000100000001000000010 /
b1 1
#187
b0 1
#188
b000000000000000000000000000000 +
b0001 .
b1 1
#189
b0 1
#190
b00000000000000000000000000000000 /
b1 1
#191
b0 1
#192
b000000000000000001000011000000 +
b1 1
#193
b0 1
#194
b000100000000000000000000000000 +
b1 1
#195
b0 1
#196
b000100000000000000000001011000 +
b0 ,
b1111 .
b1 1
#197
b0 1
#198
b000000000000000000000000011111 +
b01111000011110000111100001111000 /
b1 1
#199
b0 1
#200
b000000000000000000000000000000 +
b1 ,
b0001 .
b00000000000000000000000000000000 /
b1 1
#201
b0 1
#202
b000000000000000000110010100000 +
b0011 .
b00000000010000000000000001000000 /
b1 1
#203
b0 1
#204
b000000000000000000110010011110 +
b00000000000000000000000000000000 /
b1 1
#205
b0 1
#206
b000000000000000000000000000000 +
b0001 .
b1 1
#207
b0 1
#208
b000100000000000000000000000000 +
b1 1
#209
b0 1
#210
b1 1
#211
b0 1
#212
b000100000000000000000001011010 +
b0 ,
b1111 .
b00010000000000000000000100110000 /
b1 1
#213
b0 1
#214
b000100000000000000000001011001 +
b00000000000000000000000000000000 /
b1 1
#215
b0 1
#216
b111100000000000000000000000000 +
b1 ,
b0001 .
b1 1
#217
b0 1
#218
b111111111111111111111111111111 +
b0100 .
b00000010000000100000001000000010 /
b1 1
#219
b0 1
#220
b000000000000000000000000000000 +
b0001 .
b1 1
#221
b0 1
#222
b00000000000000000000000000000000 /
b1 1
#223
b0 1
#224
b000000000000000001000011000000 +
b1 1
#225
b0 1
#226
b000100000000000000000000000000 +
b1 1
#227
b0 1
#228
b000100000000000000000001011000 +
b0 ,
b1111 .
b1 1
#229
b0 1
#230
b000000000000000000000000011111 +
b01111000011110000111100001111000 /
b1 1
#231
b0 1
#232
b000000000000000000000000000000 +
b1 ,
b0001 .
b00000000000000000000000000000000 /
b1 1
#233
b0 1
#234
b000000000000000000110010100000 +
b0011 .
b00000000010000000000000001000000 /
b1 1
#235
b0 1
#236
b000000000000000000110010011110 +
b00000000000000000000000000000000 /
b1 1
#237
b0 1
#238
b000000000000000000000000000000 +
b0001 .
b1 1
#239
b0 1
#240
b000100000000000000000000000000 +
b1 1
#241
b0 1
#242
b1 1
#243
b0 1
#244
b000100000000000000000001011010 +
b0 ,
b1111 .
b00010000000000000000000100110000 /
b1 1
#245
b0 1
#246
b000100000000000000000001011001 +
b00000000000000000000000000000000 /
b1 1
#247
b0 1
#248
b111100000000000000000000000000 +
b1 ,
b0001 .
b1 1
#249
b0 1
#250
b111111111111111111111111111111 +
b0100 .
b00000010000000100000001000000010 /
b1 1
#251
b0 1
#252
b000000000000000000000000000000 +
b0001 .
b1 1
#253
b0 1
#254
b00000000000000000000000000000000 /
b1 1
#255
b0 1
#256
b000000000000000001000011000000 +
b1 1
#257
b0 1
#258
b000100000000000000000000000000 +
b1 1
#259
b0 1
#260
b000100000000000000000001011000 +
b0 ,
b1111 .
b1 1
#261
b0 1
#262
b000000000000000000000000011111 +
b01111000011110000111100001111000 /
b1 1
#263
b0 1
#264
b000000000000000000000000000000 +
b1 ,
b0001 .
b00000000000000000000000000000000 /
b1 1
#265
b0 1
#266
b000000000000000000110010100000 +
b0011 .
b00000000010000000000000001000000 /
b1 1
#267
b0 1
#268
b000000000000000000110010011110 +
b00000000000000000000000000000000 /
b1 1
#269
b0 1
#270
b000000000000000000000000000000 +
b0001 .
b1 1
#271
b0 1
#272
b000100000000000000000000000000 +
b1 1
#273
b0 1
#274
b1 1
#275
b0 1
#276
b000100000000000000000001011010 +
b0 ,
b1111 .
b00010000000000000000000100110000 /
b1 1
#277
b0 1
#278
b000100000000000000000001011001 +
b00000000000000000000000000000000 /
b1 1
#279
b0 1
#280
b111100000000000000000000000000 +
b1 ,
b0001 .
b1 1
#281
b0 1
#282
b111111111111111111111111111111 +
b0100 .
b00000010000000100000001000000010 /
b1 1
#283
b0 1
#284
b000000000000000000000000000000 +
b0001 .
b1 1
#285
b0 1
#286
b00000000000000000000000000000000 /
b1 1
#287
b0 1
#288
b000000000000000001000011000000 +
b1 1
#289
b0 1
#290
b000100000000000000000000000000 +
b1 1
#291
b0 1
#292
b000100000000000000000001011000 +
b0 ,
b1111 .
b1 1
#293
b0 1
#294
b000000000000000000000000011111 +
b01111000011110000111100001111000 /
b1 1
#295
b0 1
#296
b000000000000000000000000000000 +
b1 ,
b0001 .
b00000000000000000000000000000000 /
b1 1
#297
b0 1
#298
b000000000000000000110010100000 +
b0011 .
b00000000010000000000000001000000 /
b1 1
#299
b0 1
#300
b000000000000000000110010011110 +
b00000000000000000000000000000000 /
b1 1
#301
b0 1
#302
b000000000000000000000000000000 +
b0001 .
b1 1
#303
b0 1
#304
b000100000000000000000000000000 +
b1 1
#305
b0 1
#306
b1 1
#307
b0 1
#308
b000100000000000000000001011010 +
b0 ,
b1111 .
b00010000000000000000000100110000 /
b1 1
#309
b0 1
#310
b000100000000000000000001011001 +
b00000000000000000000000000000000 /
b1 1
#311
b0 1
#312
b111100000000000000000000000000 +
b1 ,
b0001 .
b1 1
#313
b0 1
#314
b111111111111111111111111111111 +
b0100 .
b00000010000000100000001000000010 /
b1 1
#315
b0 1
#316
b000000000000000000000000000000 +
b0001 .
b1 1
#317
b0 1
#318
b00000000000000000000000000000000 /
b1 1
#319
b0 1
#320
b000000000000000001000011000000 +
b1 1
#321
b0 1
#322
b000100000000000000000000000000 +
b1 1
#323
b0 1
#324
b000100000000000000000001011000 +
b0 ,
b1111 .
b1 1
#325
b0 1
#326
b000000000000000000000000011111 +
b01111000011110000111100001111000 /
b1 1
#327
b0 1
#328
b000000000000000000000000000000 +
b1 ,
b0001 .
b00000000000000000000000000000000 /
b1 1
#329
b0 1
#330
b000000000000000000110010100000 +
b0011 .
b00000000010000000000000001000000 /
b1 1
#331
b0 1
#332
b000000000000000000110010011110 +
b00000000000000000000000000000000 /
b1 1
#333
b0 1
#334
b000000000000000000000000000000 +
b0001 .
b1 1
#335
b0 1
#336
b000100000000000000000000000000 +
b1 1
#337
b0 1
#338
b1 1
#339
b0 1
#340
b000100000000000000000001011010 +
b0 ,
b1111 .
b00010000000000000000000100110000 /
b1 1
#341
b0 1
#342
b000100000000000000000001011001 +
b00000000000000000000000000000000 /
b1 1
#343
b0 1
#344
b111100000000000000000000000000 +
b1 ,
b0001 .
b1 1
#345
b0 1
#346
b111111111111111111111111111111 +
b0100 .
b00000010000000100000001000000010 /
b1 1
#347
b0 1
#348
b000000000000000000000000000000 +
b0001 .
b1 1
#349
b0 1
#350
b00000000000000000000000000000000 /
b1 1
#351
b0 1
#352
b000000000000000001000011000000 +
b1 1
#353
b0 1
#354
b000100000000000000000000000000 +
b1 1
#355
b0 1
#356
b000100000000000000000001011000 +
b0 ,
b1111 .
b1 1
#357
b0 1
#358
b000000000000000000000000011111 +
b01111000011110000111100001111000 /
b1 1
#359
b0 1
#360
b000000000000000000000000000000 +
b1 ,
b0001 .
b00000000000000000000000000000000 /
b1 1
#361
b0 1
#362
b000000000000000000110010100000 +
b0011 .
b00000000010000000000000001000000 /
b1 1
#363
b0 1
#364
b000000000000000000110010011110 +
b00000000000000000000000000000000 /
b1 1
#365
b0 1
#366
b000000000000000000000000000000 +
b0001 .
b1 1
#367
b0 1
#368
b000100000000000000000000000000 +
b1 1
#369
b0 1
#370
b1 1
#371
b0 1
#372
b000100000000000000000001011010 +
b0 ,
b1111 .
b00010000000000000000000100110000 /
b1 1
#373
b0 1
#374
b000100000000000000000001011001 +
b00000000000000000000000000000000 /
b1 1
#375
b0 1
#376
b111100000000000000000000000000 +
b1 ,
b0001 .
b1 1
#377
b0 1
#378
b111111111111111111111111111111 +
b0100 .
b00000010000000100000001000000010 /
b1 1
#379
b0 1
#380
b000000000000000000000000000000 +
b0001 .
b1 1
#381
b0 1
#382
b00000000000000000000000000000000 /
b1 1
#383
b0 1
#384
b000000000000000001000011000000 +
b1 1
#385
b0 1
#386
b000100000000000000000000000000 +
b1 1
#387
b0 1
#388
b000100000000000000000001011000 +
b0 ,
b1111 .
b1 1
#389
b0 1
#390
b000000000000000000000000011111 +
b01111000011110000111100001111000 /
b1 1
#391
b0 1
#392
b000000000000000000000000000000 +
b1 ,
b0001 .
b00000000000000000000000000000000 /
b1 1
#393
b0 1
#394
b000000000000000000110010100000 +
b0011 .
b00000000010000000000000001000000 /
b1 1
#395
b0 1
#396
b000000000000000000110010011110 +
b00000000000000000000000000000000 /
b1 1
#397
b0 1
#398
b000000000000000000000000000000 +
b0001 .
b1 1
#399
b0 1
#400
b000100000000000000000000000000 +
b1 1
#401
b0 1
#402
b1 1
#403
b0 1
#404
b000100000000000000000001011010 +
b0 ,
b1111 .
b00010000000000000000000100110000 /
b1 1
#405
b0 1
#406
b000100000000000000000001011001 +
b00000000000000000000000000000000 /
b1 1
#407
b0 1
#408
b111100000000000000000000000000 +
b1 ,
b0001 .
b1 1
#409
b0 1
#410
b111111111111111111111111111111 +
b0100 .
b00000010000000100000001000000010 /
b1 1
#411
b0 1
#412
b000000000000000000000000000000 +
b0001 .
b1 1
#413
b0 1
#414
b00000000000000000000000000000000 /
b1 1
#415
b0 1
#416
b000000000000000001000011000000 +
b1 1
#417
b0 1
#418
b000100000000000000000000000000 +
b1 1
#419
b0 1
#420
b000100000000000000000001011000 +
b0 ,
b1111 .
b1 1
#421
b0 1
#422
b000000000000000000000000011111 +
b01111000011110000111100001111000 /
b1 1
#423
b0 1
#424
b000000000000000000000000000000 +
b1 ,
b0001 .
b00000000000000000000000000000000 /
b1 1
#425
b0 1
#426
b000000000000000000110010100000 +
b0011 .
b00000000010000000000000001000000 /
b1 1
#427
b0 1
#428
b000000000000000000110010011110 +
b00000000000000000000000000000000 /
b1 1
#429
b0 1
#430
b000000000000000000000000000000 +
b0001 .
b1 1
#431
b0 1
#432
b000100000000000000000000000000 +
b1 1
#433
b0 1
#434
b1 1
#435
b0 1
#436
b000100000000000000000001011010 +
b0 ,
b1111 .
b00010000000000000000000100110000 /
b1 1
#437
b0 1
#438
b000100000000000000000001011001 +
b00000000000000000000000000000000 /
b1 1
#439
b0 1
#440
b111100000000000000000000000000 +
b1 ,
b0001 .
b1 1
#441
b0 1
#442
b111111111111111111111111111111 +
b0100 .
b00000010000000100000001000000010 /
b1 1
#443
b0 1
#444
b000000000000000000000000000000 +
b0001 .
b1 1
#445
b0 1
#446
b00000000000000000000000000000000 /
b1 1
#447
b0 1
#448
b000000000000000001000011000000 +
b1 1
#449
b0 1
#450
b000100000000000000000000000000 +
b1 1
#451
b0 1
#452
b000100000000000000000001011000 +
b0 ,
b1111 .
b1 1
#453
b0 1
#454
b000000000000000000000000011111 +
b01111000011110000111100001111000 /
b1 1
#455
b0 1
#456
b000000000000000000000000000000 +
b1 ,
b0001 .
b00000000000000000000000000000000 /
b1 1
#457
b0 1
#458
b000000000000000000110010100000 +
b0011 .
b00000000010000000000000001000000 /
b1 1
#459
b0 1
#460
b000000000000000000110010011110 +
b00000000000000000000000000000000 /
b1 1
#461
b0 1
#462
b000000000000000000000000000000 +
b0001 .
b1 1
#463
b0 1
#464
b000100000000000000000000000000 +
b1 1
#465
b0 1
#466
b1 1
#467
b0 1
#468
b000100000000000000000001011010 +
b0 ,
b1111 .
b00010000000000000000000100110000 /
b1 1
#469
b0 1
#470
b000100000000000000000001011001 +
b00000000000000000000000000000000 /
b1 1
#471
b0 1
#472
b111100000000000000000000000000 +
b1 ,
b0001 .
b1 1
#473
b0 1
#474
b111111111111111111111111111111 +
b0100 .
b00000010000000100000001000000010 /
b1 1
#475
b0 1
#476
b000000000000000000000000000000 +
b0001 .
b1 1
#477
b0 1
#478
b00000000000000000000000000000000 /
b1 1
#479
b0 1
#480
b000000000000000001000011000000 +
b1 1
#481
b0 1
#482
b000100000000000000000000000000 +
b1 1
#483
b0 1
#484
b000100000000000000000001011000 +
b0 ,
b1111 .
b1 1
#485
b0 1
#486
b000000000000000000000000011111 +
b01111000011110000111100001111000 /
b1 1
#487
b0 1
#488
b000000000000000000000000000000 +
b1 ,
b0001 .
b00000000000000000000000000000000 /
b1 1
#489
b0 1
#490
b000000000000000000110010100000 +
b0011 .
b00000000010000000000000001000000 /
b1 1
#491
b0 1
#492
b000000000000000000110010011110 +
b00000000000000000000000000000000 /
b1 1
#493
b0 1
#494
b000000000000000000000000000000 +
b0001 .
b1 1
#495
b0 1
#496
b000100000000000000000000000000 +
b1 1
#497
b0 1
#498
b1 1
#499
b0 1
#500
b000100000000000000000001011010 +
b0 ,
b1111 .
b00010000000000000000000100110000 /
b1 1
#501
b0 1
#502
b000100000000000000000001011001 +
b00000000000000000000000000000000 /
b1 1
#503
b0 1
#504
b111100000000000000000000000000 +
b1 ,
b0001 .
b1 1
#505
b0 1
#506
b111111111111111111111111111111 +
b0100 .
b00000010000000100000001000000010 /
b1 1
#507
b0 1
#508
b000000000000000000000000000000 +
b0001 .
b1 1
#509
b0 1
#510
b00000000000000000000000000000000 /
b1 1
#511
b0 1
#512
b000000000000000001000011000000 +
b1 1
#513
b0 1
#514
b000100000000000000000000000000 +
b1 1
#515
b0 1
#516
b000100000000000000000001011000 +
b0 ,
b1111 .
b1 1
#517
b0 1
#518
b000000000000000000000000011111 +
b01111000011110000111100001111000 /
b1 1
#519
b0 1
#520
b000000000000000000000000000000 +
b1 ,
b0001 .
b00000000000000000000000000000000 /
b1 1
#521
b0 1
#522
b000000000000000000110010100000 +
b0011 .
b00000000010000000000000001000000 /
b1 1
#523
b0 1
#524
b000000000000000000110010011110 +
b00000000000000000000000000000000 /
b1 1
#525
b0 1
#526
b000000000000000000000000000000 +
b0001 .
b1 1
#527
b0 1
#528
b000100000000000000000000000000 +
b1 1
#529
b0 1
#530
b1 1
#531
b0 1
#532
b000100000000000000000001011010 +
b0 ,
b1111 .
b00010000000000000000000100110000 /
b1 1
#533
b0 1
#534
b000100000000000000000001011001 +
b00000000000000000000000000000000 /
b1 1
#535
b0 1
#536
b111100000000000000000000000000 +
b1 ,
b0001 .
b1 1
#537
b0 1
#538
b111111111111111111111111111111 +
b0100 .
b00000010000000100000001000000010 /
b1 1
#539
b0 1
#540
b000000000000000000000000000000 +
b0001 .
b1 1
#541
b0 1
#542
b00000000000000000000000000000000 /
b1 1
#543
b0 1
#544
b000000000000000001000011000000 +
b1 1
#545
b0 1
#546
b000100000000000000000000000000 +
b1 1
#547
b0 1
#548
b000100000000000000000001011000 +
b0 ,
b1111 .
b1 1
#549
b0 1
#550
b000000000000000000000000011111 +
b01111000011110000111100001111000 /
b1 1
#551
b0 1
#552
b000000000000000000000000000000 +
b1 ,
b0001 .
b00000000000000000000000000000000 /
b1 1
#553
b0 1
#554
b000000000000000000110010100000 +
b0011 .
b00000000010000000000000001000000 /
b1 1
#555
b0 1
#556
b000000000000000000110010011110 +
b00000000000000000000000000000000 /
b1 1
#557
b0 1
#558
b000000000000000000000000000000 +
b0001 .
b1 1
#559
b0 1
#560
b000100000000000000000000000000 +
b1 1
#561
b0 1
#562
b1 1
#563
b0 1
#564
b000100000000000000000001011010 +
b0 ,
b1111 .
b00010000000000000000000100110000 /
b1 1
#565
b0 1
#566
b000100000000000000000001011001 +
b00000000000000000000000000000000 /
b1 1
#567
b0 1
#568
b111100000000000000000000000000 +
b1 ,
b0001 .
b1 1
#569
b0 1
#570
b111111111111111111111111111111 +
b0100 .
b00000010000000100000001000000010 /
b1 1
#571
b0 1
#572
b000000000000000000000000000000 +
b0001 .
b1 1
#573
b0 1
#574
b00000000000000000000000000000000 /
b1 1
#575
b0 1
#576
b000000000000000001000011000000 +
b1 1
#577
b0 1
#578
b000100000000000000000000000000 +
b1 1
#579
b0 1
#580
b000100000000000000000001011000 +
b0 ,
b1111 .
b1 1
#581
b0 1
#582
b000000000000000000000000011111 +
b01111000011110000111100001111000 /
b1 1
#583
b0 1
#584
b000000000000000000000000000000 +
b1 ,
b0001 .
b00000000000000000000000000000000 /
b1 1
#585
b0 1
#586
b000000000000000000110010100000 +
b0011 .
b00000000010000000000000001000000 /
b1 1
#587
b0 1
#588
b000000000000000000110010011110 +
b00000000000000000000000000000000 /
b1 1
#589
b0 1
#590
b000000000000000000000000000000 +
b0001 .
b1 1
#591
b0 1
#592
b000100000000000000000000000000 +
b1 1
#593
b0 1
#594
b1 1
#595
b0 1
#596
b000100000000000000000001011010 +
b0 ,
b1111 .
b00010000000000000000000100110000 /
b1 1
#597
b0 1
#598
b000100000000000000000001011001 +
b00000000000000000000000000000000 /
b1 1
#599
b0 1
#600
b111100000000000000000000000000 +
b1 ,
b0001 .
b1 1
#601
b0 1
#602
b111111111111111111111111111111 +
b0100 .
b00000010000000100000001000000010 /
b1 1
#603
b0 1
#604
b000000000000000000000000000000 +
b0001 .
b1 1
#605
b0 1
#606
b00000000000000000000000000000000 /
b1 1
#607
b0 1
#608
b000000000000000001000011000000 +
b1 1
#609
b0 1
#610
b000100000000000000000000000000 +
b1 1
#611
b0 1
#612
b000100000000000000000001011000 +
b0 ,
b1111 .
b1 1
#613
b0 1
#614
b000000000000000000000000011111 +
b01111000011110000111100001111000 /
b1 1
#615
b0 1
#616
b000000000000000000000000000000 +
b1 ,
b0001 .
b00000000000000000000000000000000 /
b1 1
#617
b0 1
#618
b000000000000000000110010100000 +
b0011 .
b00000000010000000000000001000000 /
b1 1
#619
b0 1
#620
b000000000000000000110010011110 +
b00000000000000000000000000000000 /
b1 1
#621
b0 1
#622
b000000000000000000000000000000 +
b0001 .
b1 1
#623
b0 1
#624
b000100000000000000000000000000 +
b1 1
#625
b0 1
#626
b1 1
#627
b0 1
#628
b000100000000000000000001011010 +
b0 ,
b1111 .
b00010000000000000000000100110000 /
b1 1
#629
b0 1
#630
b000100000000000000000001011001 +
b00000000000000000000000000000000 /
b1 1
#631
b0 1
#632
b111100000000000000000000000000 +
b1 ,
b0001 .
b1 1
#633
b0 1
#634
b111111111111111111111111111111 +
b0100 .
b00000010000000100000001000000010 /
b1 1
#635
b0 1
#636
b000000000000000000000000000000 +
b0001 .
b1 1
#637
b0 1
#638
b00000000000000000000000000000000 /
b1 1
#639
b0 1
#640
b000000000000000001000011000000 +
b1 1
#641
b0 1
#642
b000100000000000000000000000000 +
b1 1
#643
b0 1
#644
b000100000000000000000001011000 +
b0 ,
b1111 .
b1 1
#645
b0 1
#646
b000000000000000000000000011111 +
b01111000011110000111100001111000 /
b1 1
#647
b0 1
#648
b000000000000000000000000000000 +
b1 ,
b0001 .
b00000000000000000000000000000000 /
b1 1
#649
b0 1
#650
b000000000000000000110010100000 +
b0011 .
b00000000010000000000000001000000 /
b1 1
#651
b0 1
#652
b000000000000000000110010011110 +
b00000000000000000000000000000000 /
b1 1
#653
b0 1
#654
b000000000000000000000000000000 +
b0001 .
b1 1
#655
b0 1
#656
b000100000000000000000000000000 +
b1 1
#657
b0 1
#658
b1 1
#659
b0 1
#660
b000100000000000000000001011010 +
b0 ,
b1111 .
b00010000000000000000000100110000 /
b1 1
#661
b0 1
#662
b000100000000000000000001011001 +
b00000000000000000000000000000000 /
b1 1
#663
b0 1
#664
b111100000000000000000000000000 +
b1 ,
b0001 .
b1 1
#665
b0 1
#666
b111111111111111111111111111111 +
b0100 .
b00000010000000100000001000000010 /
b1 1
#667
b0 1
#668
b000000000000000000000000000000 +
b0001 .
b1 1
#669
b0 1
#670
b00000000000000000000000000000000 /
b1 1
#671
b0 1
#672
b000000000000000001000011000000 +
b1 1
#673
b0 1
#674
b000100000000000000000000000000 +
b1 1
#675
b0 1
#676
b000100000000000000000001011000 +
b0 ,
b1111 .
b1 1
#677
b0 1
#678
b000000000000000000000000011111 +
b01111000011110000111100001111000 /
b1 1
#679
b0 1
#680
b000000000000000000000000000000 +
b1 ,
b0001 .
b00000000000000000000000000000000 /
b1 1
#681
b0 1
#682
b000000000000000000110010100000 +
b0011 .
b00000000010000000000000001000000 /
b1 1
#683
b0 1
#684
b000000000000000000110010011110 +
b00000000000000000000000000000000 /
b1 1
#685
b0 1
#686
b000000000000000000000000000000 +
b0001 .
b1 1
#687
b0 1
#688
b000100000000000000000000000000 +
b1 1
#689
b0 1
#690
b1 1
#691
b0 1
#692
b000100000000000000000001011010 +
b0 ,
b1111 .
b00010000000000000000000100110000 /
b1 1
#693
b0 1
#694
b000100000000000000000001011001 +
b00000000000000000000000000000000 /
b1 1
#695
b0 1
#696
b111100000000000000000000000000 +
b1 ,
b0001 .
b1 1
#697
b0 1
